time[ms],#packets last interval,#packets overall,overall avrg. packetsize [byte],overall sum packetsize [byte],overall offer [Mb/s],offer last interval [Mb/s]
0.0,0,0,NaN,0.0,NaN,NaN
500.0,97,97,601.8865979381443,58383.0,0.934128,0.9341279999999998
1000.0,115,212,609.0,128418.0,1.027344,1.12056
1500.0,117,329,649.9487179487179,204462.0,1.090464,1.216704
2000.0,97,426,560.6082474226804,258841.0,1.035364,0.870064
2500.0,111,537,601.927927927928,325655.0,1.042096,1.069024
3000.0,110,647,587.209090909091,390248.0,1.0406613333333332,1.0334880000000002
3500.0,107,754,617.3271028037383,456302.0,1.0429760000000001,1.056864
4000.0,99,853,596.2828282828283,515334.0,1.030668,0.944512
4500.0,89,942,577.4943820224719,566731.0,1.0075217777777778,0.822352
