time[ms],#packets last interval,#packets overall,overall avrg. packetsize [byte],overall sum packetsize [byte],overall thrp [Mb/s],tpht last interval [Mb/s]
500.0,316,316,588.5189873417721,185972.0,Infinity,Infinity
1000.0,316,632,596.4715189873418,374457.0,5.991312,3.0157600000000007
1500.0,304,936,617.0,562025.0,4.4962,3.001088
2000.0,300,1236,627.1,750155.0,4.000826666666667,3.01008
2500.0,298,1534,620.2919463087248,935002.0,3.740008,2.957552
3000.0,326,1860,585.1196319018405,1125751.0,3.6024032000000004,3.051984
3500.0,327,2187,598.1223241590214,1321337.0,3.5235653333333334,3.129376
4000.0,316,2503,590.9683544303797,1508083.0,3.4470468571428574,2.9879359999999995
4500.0,330,2833,580.2787878787879,1699575.0,3.39915,3.063872
