[0] Config.pm:312> INFO - This is Biber 2.15
[0] Config.pm:315> INFO - Logfile is 'main.blg'
[91] biber:330> INFO - === Di Jan  5, 2021, 10:59:10
[108] Biber.pm:415> INFO - Reading 'main.bcf'
[174] Biber.pm:952> INFO - Found 9 citekeys in bib section 0
[191] Biber.pm:4334> INFO - Processing section 0
[204] Biber.pm:4523> INFO - Looking for bibtex format file 'bibliography.bib' for section 0
[205] bibtex.pm:1682> INFO - LaTeX decoding ...
[215] bibtex.pm:1494> INFO - Found BibTeX data source 'bibliography.bib'
[273] UCollate.pm:68> INFO - Overriding locale 'en-US' defaults 'normalization = NFD' with 'normalization = prenormalized'
[274] UCollate.pm:68> INFO - Overriding locale 'en-US' defaults 'variable = shifted' with 'variable = non-ignorable'
[274] Biber.pm:4162> INFO - Sorting list 'nty/global//global/global' of type 'entry' with template 'nty' and locale 'en-US'
[274] Biber.pm:4168> INFO - No sort tailoring available for locale 'en-US'
[287] bbl.pm:651> INFO - Writing 'main.bbl' with encoding 'UTF-8'
[291] bbl.pm:754> INFO - Output to main.bbl
