% $ biblatex auxiliary file $
% $ biblatex bbl format version 3.1 $
% Do not modify the above lines!
%
% This is an auxiliary file used by the 'biblatex' package.
% This file may safely be deleted. It will be recreated by
% biber as required.
%
\begingroup
\makeatletter
\@ifundefined{ver@biblatex.sty}
  {\@latex@error
     {Missing 'biblatex' package}
     {The bibliography requires the 'biblatex' package.}
      \aftergroup\endinput}
  {}
\endgroup


\refsection{0}
  \datalist[entry]{nty/global//global/global}
    \entry{usa-election-facts}{online}{}
      \name{author}{2}{}{%
        {{hash=816376cea56c1caac7c8de04385e1dc4}{%
           family={Archives},
           familyi={A\bibinitperiod},
           given={The\bibnamedelimb U.S.\bibnamedelimi National},
           giveni={T\bibinitperiod\bibinitdelim U\bibinitperiod\bibinitdelim N\bibinitperiod}}}%
        {{hash=775c3a99ac764ca1a68eff8aa99c2c5a}{%
           family={Administration},
           familyi={A\bibinitperiod},
           given={Records},
           giveni={R\bibinitperiod}}}%
      }
      \strng{namehash}{87a68694808fdc86cc4e9fe7e17b0f3a}
      \strng{fullhash}{87a68694808fdc86cc4e9fe7e17b0f3a}
      \strng{bibnamehash}{87a68694808fdc86cc4e9fe7e17b0f3a}
      \strng{authorbibnamehash}{87a68694808fdc86cc4e9fe7e17b0f3a}
      \strng{authornamehash}{87a68694808fdc86cc4e9fe7e17b0f3a}
      \strng{authorfullhash}{87a68694808fdc86cc4e9fe7e17b0f3a}
      \field{sortinit}{A}
      \field{sortinithash}{a3dcedd53b04d1adfd5ac303ecd5e6fa}
      \field{labelnamesource}{author}
      \field{labeltitlesource}{title}
      \field{title}{Distribution of Electoral Votes}
      \field{urlday}{4}
      \field{urlmonth}{1}
      \field{urlyear}{2021}
      \field{year}{2020}
      \field{urldateera}{ce}
      \verb{urlraw}
      \verb https://www.archives.gov/electoral-college/allocation
      \endverb
      \verb{url}
      \verb https://www.archives.gov/electoral-college/allocation
      \endverb
    \endentry
    \entry{banzhaf}{article}{}
      \name{author}{1}{}{%
        {{hash=fd223ac31c579b8281159a69b3bc8455}{%
           family={Banzhaf},
           familyi={B\bibinitperiod},
           given={John\bibnamedelima F.},
           giveni={J\bibinitperiod\bibinitdelim F\bibinitperiod}}}%
      }
      \list{publisher}{1}{%
        {HEINONLINE}%
      }
      \strng{namehash}{fd223ac31c579b8281159a69b3bc8455}
      \strng{fullhash}{fd223ac31c579b8281159a69b3bc8455}
      \strng{bibnamehash}{fd223ac31c579b8281159a69b3bc8455}
      \strng{authorbibnamehash}{fd223ac31c579b8281159a69b3bc8455}
      \strng{authornamehash}{fd223ac31c579b8281159a69b3bc8455}
      \strng{authorfullhash}{fd223ac31c579b8281159a69b3bc8455}
      \field{sortinit}{B}
      \field{sortinithash}{8de16967003c7207dae369d874f1456e}
      \field{labelnamesource}{author}
      \field{labeltitlesource}{title}
      \field{issn}{0036-0465}
      \field{journaltitle}{Rutgers Law Review}
      \field{number}{2}
      \field{title}{Weighted Voting Doesn't Work: A Mathematical Analysis}
      \field{volume}{19}
      \field{year}{1965}
      \keyw{Political science -- Politics -- Political processes ; Mathematics -- Applied mathematics -- Statistics ; Mathematics -- Applied mathematics -- Game theory ; Political science -- Politics -- Political processes ; Mathematics -- Pure mathematics -- Probability theory ; Political science -- Politics -- Political processes ; Philosophy -- Applied philosophy -- Social philosophy ; Applied sciences -- Research methods -- Modeling ; Philosophy -- Epistemology -- Knowledge ; Mathematics -- Mathematical expressions -- Axioms}
    \endentry
    \entry{pew-research-party-affiliation}{online}{}
      \name{author}{1}{}{%
        {{hash=ed874c27cc9edf2ae3864cebd2e880c7}{%
           family={Center},
           familyi={C\bibinitperiod},
           given={Pew\bibnamedelima Research},
           giveni={P\bibinitperiod\bibinitdelim R\bibinitperiod}}}%
      }
      \strng{namehash}{ed874c27cc9edf2ae3864cebd2e880c7}
      \strng{fullhash}{ed874c27cc9edf2ae3864cebd2e880c7}
      \strng{bibnamehash}{ed874c27cc9edf2ae3864cebd2e880c7}
      \strng{authorbibnamehash}{ed874c27cc9edf2ae3864cebd2e880c7}
      \strng{authornamehash}{ed874c27cc9edf2ae3864cebd2e880c7}
      \strng{authorfullhash}{ed874c27cc9edf2ae3864cebd2e880c7}
      \field{sortinit}{C}
      \field{sortinithash}{4c244ceae61406cdc0cc2ce1cb1ff703}
      \field{labelnamesource}{author}
      \field{labeltitlesource}{title}
      \field{title}{Party affiliation by state}
      \field{urlday}{27}
      \field{urlmonth}{12}
      \field{urlyear}{2020}
      \field{year}{2014}
      \field{urldateera}{ce}
      \verb{urlraw}
      \verb https://www.pewforum.org/religious-landscape-study/compare/party-affiliation/by/state/
      \endverb
      \verb{url}
      \verb https://www.pewforum.org/religious-landscape-study/compare/party-affiliation/by/state/
      \endverb
    \endentry
    \entry{gallup-party-affiliation}{online}{}
      \name{author}{1}{}{%
        {{hash=0323d026e1144736eb1eb13d3a83ed36}{%
           family={Gallup},
           familyi={G\bibinitperiod}}}%
      }
      \strng{namehash}{0323d026e1144736eb1eb13d3a83ed36}
      \strng{fullhash}{0323d026e1144736eb1eb13d3a83ed36}
      \strng{bibnamehash}{0323d026e1144736eb1eb13d3a83ed36}
      \strng{authorbibnamehash}{0323d026e1144736eb1eb13d3a83ed36}
      \strng{authornamehash}{0323d026e1144736eb1eb13d3a83ed36}
      \strng{authorfullhash}{0323d026e1144736eb1eb13d3a83ed36}
      \field{sortinit}{G}
      \field{sortinithash}{62eb2aa29549e4fdbd3cb154ec5711cb}
      \field{labelnamesource}{author}
      \field{labeltitlesource}{title}
      \field{title}{Identification with political parties in the United States in 2018, by state}
      \field{urlday}{27}
      \field{urlmonth}{12}
      \field{urlyear}{2020}
      \field{year}{2019}
      \field{urldateera}{ce}
      \verb{urlraw}
      \verb https://www.statista.com/statistics/1080003/political-party-identification-state-us/
      \endverb
      \verb{url}
      \verb https://www.statista.com/statistics/1080003/political-party-identification-state-us/
      \endverb
    \endentry
    \entry{LaruelleAnnick2005Asad}{article}{}
      \name{author}{2}{}{%
        {{hash=aa11a26f313823db165aa0aa4612d294}{%
           family={Laruelle},
           familyi={L\bibinitperiod},
           given={Annick},
           giveni={A\bibinitperiod}}}%
        {{hash=52a7ead853fee60ed4049f4940d89e2f}{%
           family={Valenciano},
           familyi={V\bibinitperiod},
           given={Federico},
           giveni={F\bibinitperiod}}}%
      }
      \list{publisher}{1}{%
        {Springer Science + Business Media}%
      }
      \strng{namehash}{686cdf001b342e6ef756b9ee28373312}
      \strng{fullhash}{686cdf001b342e6ef756b9ee28373312}
      \strng{bibnamehash}{686cdf001b342e6ef756b9ee28373312}
      \strng{authorbibnamehash}{686cdf001b342e6ef756b9ee28373312}
      \strng{authornamehash}{686cdf001b342e6ef756b9ee28373312}
      \strng{authorfullhash}{686cdf001b342e6ef756b9ee28373312}
      \field{sortinit}{L}
      \field{sortinithash}{dad3efd0836470093a7b4a7bb756eb8c}
      \field{labelnamesource}{author}
      \field{labeltitlesource}{title}
      \field{abstract}{In this paper we propose a simple model for measuring 'success' or 'decisiveness' in voting situations. For an assessment of these features two inputs are claimed to be necessary: the voting rule and the voters' behavior. The voting rule specifies when a proposal is to be accepted or rejected depending on the resulting vote configuration. Voting behavior is summarized by a distribution of probability over the vote configurations. This basic model provides a clear common conceptual basis for reinterpreting different power indices and some related game theoretic notions coherently from a unified point of view.}
      \field{issn}{0176-1714}
      \field{journaltitle}{Social Choice and Welfare}
      \field{number}{1}
      \field{title}{Assessing success and decisiveness in voting situations}
      \field{volume}{24}
      \field{year}{2005}
      \keyw{Political science -- Politics -- Political processes ; Mathematics -- Applied mathematics -- Statistics ; Mathematics -- Applied mathematics -- Game theory ; Political science -- Politics -- Political processes ; Mathematics -- Pure mathematics -- Probability theory ; Political science -- Politics -- Political processes ; Philosophy -- Applied philosophy -- Social philosophy ; Applied sciences -- Research methods -- Modeling ; Philosophy -- Epistemology -- Knowledge ; Mathematics -- Mathematical expressions -- Axioms}
    \endentry
    \entry{prokop}{online}{}
      \name{author}{1}{}{%
        {{hash=545370b38624ca876276f970d3625a51}{%
           family={Prokop},
           familyi={P\bibinitperiod},
           given={Andrew},
           giveni={A\bibinitperiod}}}%
      }
      \strng{namehash}{545370b38624ca876276f970d3625a51}
      \strng{fullhash}{545370b38624ca876276f970d3625a51}
      \strng{bibnamehash}{545370b38624ca876276f970d3625a51}
      \strng{authorbibnamehash}{545370b38624ca876276f970d3625a51}
      \strng{authornamehash}{545370b38624ca876276f970d3625a51}
      \strng{authorfullhash}{545370b38624ca876276f970d3625a51}
      \field{sortinit}{P}
      \field{sortinithash}{bb5b15f2db90f7aef79bb9e83defefcb}
      \field{labelnamesource}{author}
      \field{labeltitlesource}{title}
      \field{title}{Why the Electoral College is the absolute worst, explained}
      \field{urlday}{9}
      \field{urlmonth}{11}
      \field{urlyear}{2020}
      \field{year}{2016}
      \field{urldateera}{ce}
      \verb{urlraw}
      \verb https://www.vox.com/policy-and-politics/2016/11/7/12315574/electoral-college-explained-presidential-elections-2016
      \endverb
      \verb{url}
      \verb https://www.vox.com/policy-and-politics/2016/11/7/12315574/electoral-college-explained-presidential-elections-2016
      \endverb
    \endentry
    \entry{mpi}{online}{}
      \name{author}{1}{}{%
        {{hash=ac719df49c3d3471f838276fe93c186d}{%
           family={Public\bibnamedelima Interest},
           familyi={P\bibinitperiod\bibinitdelim I\bibinitperiod},
           given={Software},
           giveni={S\bibinitperiod},
           prefix={in\bibnamedelima the},
           prefixi={i\bibinitperiod\bibinitdelim t\bibinitperiod}}}%
      }
      \strng{namehash}{ac719df49c3d3471f838276fe93c186d}
      \strng{fullhash}{ac719df49c3d3471f838276fe93c186d}
      \strng{bibnamehash}{ac719df49c3d3471f838276fe93c186d}
      \strng{authorbibnamehash}{ac719df49c3d3471f838276fe93c186d}
      \strng{authornamehash}{ac719df49c3d3471f838276fe93c186d}
      \strng{authorfullhash}{ac719df49c3d3471f838276fe93c186d}
      \field{sortinit}{P}
      \field{sortinithash}{bb5b15f2db90f7aef79bb9e83defefcb}
      \field{labelnamesource}{author}
      \field{labeltitlesource}{title}
      \field{title}{Open MPI: Open Source High Performance Computing}
      \field{urlday}{1}
      \field{urlmonth}{1}
      \field{urlyear}{2021}
      \field{year}{2020}
      \field{urldateera}{ce}
      \verb{urlraw}
      \verb https://www.open-mpi.org/
      \endverb
      \verb{url}
      \verb https://www.open-mpi.org/
      \endverb
    \endentry
    \entry{washpost-election-results}{online}{}
      \name{author}{1}{}{%
        {{hash=876eb732664d7ee2af72de62a02e4236}{%
           family={Staff},
           familyi={S\bibinitperiod},
           given={Washington\bibnamedelima Post},
           giveni={W\bibinitperiod\bibinitdelim P\bibinitperiod}}}%
      }
      \strng{namehash}{876eb732664d7ee2af72de62a02e4236}
      \strng{fullhash}{876eb732664d7ee2af72de62a02e4236}
      \strng{bibnamehash}{876eb732664d7ee2af72de62a02e4236}
      \strng{authorbibnamehash}{876eb732664d7ee2af72de62a02e4236}
      \strng{authornamehash}{876eb732664d7ee2af72de62a02e4236}
      \strng{authorfullhash}{876eb732664d7ee2af72de62a02e4236}
      \field{sortinit}{S}
      \field{sortinithash}{c319cff79d99c853d775f88277d4e45f}
      \field{labelnamesource}{author}
      \field{labeltitlesource}{title}
      \field{title}{Find election results by state}
      \field{urlday}{21}
      \field{urlmonth}{12}
      \field{urlyear}{2020}
      \field{year}{2020}
      \field{urldateera}{ce}
      \verb{urlraw}
      \verb https://www.washingtonpost.com/tablet/2020/11/03/election-2020-results-by-state/
      \endverb
      \verb{url}
      \verb https://www.washingtonpost.com/tablet/2020/11/03/election-2020-results-by-state/
      \endverb
    \endentry
    \entry{us-census-bureau-18-over}{online}{}
      \name{author}{1}{}{%
        {{hash=8d2036a28ce2b30135a029bac2bf53cd}{%
           family={U.S.\bibnamedelimi Census\bibnamedelima Bureau},
           familyi={U\bibinitperiod\bibinitdelim C\bibinitperiod\bibinitdelim B\bibinitperiod},
           given={Population\bibnamedelima Division},
           giveni={P\bibinitperiod\bibinitdelim D\bibinitperiod}}}%
      }
      \strng{namehash}{8d2036a28ce2b30135a029bac2bf53cd}
      \strng{fullhash}{8d2036a28ce2b30135a029bac2bf53cd}
      \strng{bibnamehash}{8d2036a28ce2b30135a029bac2bf53cd}
      \strng{authorbibnamehash}{8d2036a28ce2b30135a029bac2bf53cd}
      \strng{authornamehash}{8d2036a28ce2b30135a029bac2bf53cd}
      \strng{authorfullhash}{8d2036a28ce2b30135a029bac2bf53cd}
      \field{sortinit}{U}
      \field{sortinithash}{77a6935510e008adcf5b555e7b4f0711}
      \field{labelnamesource}{author}
      \field{labeltitlesource}{title}
      \field{title}{Estimates of the Total Resident Population and Resident Population Age 18 Years and Older for the United States, States, and Puerto Rico}
      \field{urlday}{27}
      \field{urlmonth}{12}
      \field{urlyear}{2020}
      \field{year}{2019}
      \field{urldateera}{ce}
      \verb{urlraw}
      \verb https://www.census.gov/data/tables/time-series/demo/popest/2010s-national-detail.html
      \endverb
      \verb{url}
      \verb https://www.census.gov/data/tables/time-series/demo/popest/2010s-national-detail.html
      \endverb
    \endentry
  \enddatalist
\endrefsection
\endinput

