State , Votes , Democratic , Republican , Win Margin 
Alabama , 9 , 36.6 , 62.0 , 25.4  
Alaska , 3 , 42.8 , 52.8 , 10.0  
Arizona , 11 , 49.4 , 49.1 , 0.3  
Arkansas , 6 , 34.8 , 62.4 , 27.6  
California , 55 , 63.5 , 34.3 , 29.2  
Colorado , 9 , 55.4 , 41.9 , 13.5  
Connecticut , 7 , 59.2 , 39.2 , 20.0  
Delaware , 3 , 58.8 , 39.8 , 19.0  
District of Columbia , 3 , 92.1 , 5.4 , 86.7  
Florida , 29 , 47.9 , 51.2 , 3.3  
Georgia , 16 , 49.5 , 49.3 , 0.2  
Hawaii , 4 , 63.7 , 34.3 , 29.4  
Idaho , 4 , 33.1 , 63.8 , 30.7  
Illinois , 20 , 57.5 , 40.5 , 17.0  
Indiana , 11 , 41.0 , 57.0 , 16.0  
Iowa , 6 , 44.9 , 53.1 , 8.2  
Kansas , 6 , 41.5 , 56.1 , 14.6  
Kentucky , 8 , 36.2 , 62.1 , 25.9  
Louisiana , 8 , 39.9 , 58.5 , 18.6  
Maine , 4 , 53.1 , 44.0 , 9.1  
Maryland , 10 , 65.4 , 32.2 , 33.2  
Massachusetts , 11 , 65.6 , 32.1 , 33.5  
Michigan , 16 , 50.6 , 47.8 , 2.8  
Minnesota , 10 , 52.4 , 45.3 , 7.1  
Mississippi , 6 , 41.0 , 57.5 , 16.5  
Missouri , 10 , 41.4 , 56.8 , 15.4  
Montana , 3 , 40.4 , 56.7 , 16.3  
Nebraska , 5 , 39.2 , 58.2 , 19.0  
Nevada , 6 , 50.1 , 47.7 , 2.4  
New Hampshire , 4 , 52.8 , 45.5 , 7.3  
New Jersey , 14 , 57.1 , 41.3 , 15.8  
New Mexico , 5 , 54.3 , 43.5 , 10.8  
New York , 29 , 60.9 , 37.7 , 23.2  
North Carolina , 15 , 48.6 , 49.9 , 1.3  
North Dakota , 3 , 31.8 , 65.1 , 33.3  
Ohio , 18 , 45.2 , 53.3 , 8.1  
Oklahoma , 7 , 32.3 , 65.4 , 33.1  
Oregon , 7 , 56.5 , 40.4 , 16.1  
Pennsylvania , 20 , 50.0 , 48.8 , 1.2  
Rhode Island , 4 , 59.4 , 38.6 , 20.8  
South Carolina , 9 , 43.4 , 55.1 , 11.7  
South Dakota , 3 , 35.6 , 61.8 , 26.2  
Tennessee , 11 , 37.4 , 60.7 , 23.3  
Texas , 38 , 46.5 , 52.0 , 5.5  
Utah , 6 , 37.6 , 58.1 , 20.5  
Vermont , 3 , 66.1 , 30.7 , 35.4  
Virginia , 13 , 54.1 , 44.0 , 10.1  
Washington , 12 , 58.0 , 38.8 , 19.2  
West Virginia , 5 , 29.7 , 68.6 , 38.9  
Wisconsin , 10 , 49.5 , 48.8 , 0.7
Wyoming , 3 , 29.6 , 69.9 , 43.3  