time[ms],#packets last interval ,#packets overall,avrg last interval [ms],max last interval [ms],avrg overall [ms],overall max overall [ms],BinWidth[ms],Histogram
0.0,0,0,NaN,0.0,NaN,NaN,0.1,0 0 0 0 0 0 0 0 0 0 0 0 0 0 0 0 0 0 0 0 0 0 0 0 0 0 0 0 0 0 0 0 0 0 0 0 0 0 0 0 0 0 0 0 0 0 0 0 0 0 0 0 0 0 0 0 0 0 0 0 0 0 0 0 0 0 0 0 0 0 0 0 0 0 0 0 0 0 0 0 0 0 0 0 0 0 0 0 0 0 0 0 0 0 0 0 0 0 0 0 0 0 0 0 0 0 0 0 0 0 0 0 0 0 0 0 0 0 0 0 0 0 0 0 0 0 0 0 0 0 0 0 0 0 0 0 0 0 0 0 0 0 0 0 0 0 0 0 0 0 0 0 0 0 0 0 0 0 0 0 0 0 0 0 0 0 0 0 0 0 0 0 0 0 0 0 0 0 0 0 0 0 0 0 0 0 0 0 0 0 0 0 0 0 0 0 0 0 0 0 0 0 0 0 0 0 0 0 0 0 0 0 0 0 0 0 0 0 0 0 0 0 0 0 0 0 0 0 0 0 0 0 0 0 0 0 0 0 0 0 0 0 0 0 0 0 0 0 0 0 0 0 0 0 0 0 0 0 0 0 0 0 0 0 0 0 0 0 0 0 0 0 0 0 0 0 0 0 0 0 0 0 0 0 0 0 0 0 0 0 0 0 0 0 0 0 0 0 0 0 0 0 0 0 0 0 0 0 0 0 0 0 0 0 0 0 0 0 0 0 0 0 0 0 0 0 0 0 0 0 0 0 0 0 0 0 0 0 0 0 0 0 0 0 0 0 0 0 0 0 0 0 0 0 0 0 0 0 0 0 0 0 0 0 0 0 0 0 0 0 0 0 0 0 0 0 0 0 0 0 0 0 0 0 0 0 0 0 0 0 0 0 0 0 0 0 0 0 0 0 0 0 0 0 0 0 0 0 0 0 0 0 0 0 0 0 0 0 0 0 0 0 0 0 0 0 0 0 0 0 0 0 0 0 0 0 0 0 0 0 0 0 0 0 0 0 0 0 0 0 0 0 0 0 0 0 0 0 0 0 0 0 0 0 0 0 0 0 0 0 0 0 0 0 0 0 0 0 0 0 0 0 0 0 0 0 0 0 0 0 0 0 0 0 0 0 0 0 0 0 0 0 0 0 0 0 0 0 0 0 0 0 0 0 0 0 0 0 0 0 0 0 0 0 0 0 0 0 0 0 0 0 0 0 0 0 0 0 0 0 0 0 0 0 0 0 0 0 0 0 0 0 0 0 0 0 0 0 0 0 0 0 0 0 0 0 0 0 0 0 0 0 0 0 0 0 0 0 0 0 0 0 0 0 0 0 0 0 0 0 0 0 0 0 0 0 0 0 0 0 
500.0,98,98,17.160765306122443,108.44599999999997,17.160765306122443,108.44599999999997,0.1,0 0 0 0 0 0 1 1 0 1 0 1 1 0 0 0 1 0 0 1 0 1 1 1 0 1 0 1 0 0 1 0 1 0 0 0 0 0 1 2 2 1 0 0 1 3 0 0 0 0 0 1 1 0 0 0 1 1 1 0 0 1 2 1 1 0 1 1 0 1 0 1 0 0 1 2 1 0 2 0 0 0 0 2 1 0 1 0 0 1 0 0 0 0 0 0 0 0 0 1 1 0 0 0 0 0 0 0 1 1 0 1 0 1 0 1 1 0 0 0 1 0 0 0 0 0 0 0 0 0 0 0 0 0 0 0 0 0 0 1 2 1 0 1 0 0 0 0 0 0 1 0 1 1 0 2 0 0 0 0 0 0 0 0 0 0 1 0 0 0 1 0 0 0 2 0 0 0 0 3 0 0 0 0 0 0 1 0 0 0 0 0 0 0 0 1 0 1 0 1 1 1 0 0 1 0 0 0 0 0 0 0 0 0 1 0 0 0 1 0 0 0 0 0 0 0 0 0 0 0 0 0 0 0 0 0 0 0 0 0 0 0 0 0 1 0 0 0 0 0 0 0 0 0 1 0 1 0 0 0 0 0 0 0 0 0 0 0 0 0 0 0 0 0 0 0 0 0 0 0 0 0 0 0 0 0 0 0 0 0 0 0 0 0 0 0 0 0 0 0 0 0 0 0 0 0 0 0 0 0 0 0 0 1 0 0 0 0 0 0 0 1 0 0 0 0 0 0 0 0 0 0 0 0 0 0 0 0 0 0 0 0 0 0 0 1 0 0 0 0 0 0 0 0 0 0 0 0 0 1 0 0 0 0 0 0 0 0 0 0 0 0 0 0 0 0 0 0 0 0 0 0 0 0 0 0 0 0 0 0 0 0 0 0 0 0 0 0 0 0 0 0 0 0 0 0 0 0 0 0 0 0 0 0 0 0 0 0 0 0 0 0 0 0 0 0 0 0 0 0 0 0 0 0 0 0 0 0 0 0 0 0 0 0 0 0 0 0 0 0 0 0 0 0 0 0 0 0 0 0 0 0 0 0 0 0 0 0 0 0 0 0 0 0 0 0 0 0 0 0 0 0 0 0 0 0 0 0 0 0 0 0 0 0 0 0 0 0 0 0 0 0 0 0 0 0 0 0 0 0 0 0 0 0 0 0 0 0 0 0 0 0 0 0 0 0 0 0 0 0 0 0 0 0 0 0 0 0 0 0 0 0 0 0 0 0 0 0 0 0 0 0 0 0 0 0 0 0 0 0 0 0 0 0 0 0 0 0 0 0 0 0 0 0 0 0 0 0 0 0 0 0 0 0 0 0 0 0 0 0 0 0 0 0 0 0 0 0 0 7 
1000.0,99,197,29.269484848484858,97.73700000000002,23.245857868020305,103.06431979695431,0.1,0 0 0 0 0 0 1 1 0 1 0 1 1 0 0 0 1 0 0 3 1 1 1 2 1 2 1 1 0 0 2 0 2 0 0 0 0 0 2 5 3 2 0 0 1 4 0 0 1 0 0 1 2 0 0 0 1 1 1 0 1 1 2 1 1 0 1 1 0 1 1 2 0 0 1 3 1 0 3 0 0 1 0 2 1 0 1 0 0 1 0 0 0 0 0 0 0 0 0 1 1 0 0 0 0 0 1 0 1 1 0 3 0 2 0 1 1 0 2 0 1 0 0 0 0 0 0 0 1 0 0 0 1 0 0 0 0 0 0 1 2 1 0 2 0 0 0 1 1 0 2 1 1 1 0 3 0 1 1 2 0 0 1 0 0 0 1 0 0 1 1 0 0 0 3 1 1 0 0 4 1 0 0 0 0 0 1 0 0 0 0 1 0 0 1 1 0 1 0 1 1 1 0 0 1 1 0 0 0 0 0 0 0 0 1 0 0 0 1 0 0 0 0 0 0 0 0 0 0 0 0 0 0 0 0 0 0 0 0 0 0 0 0 0 1 0 0 0 0 0 0 0 0 0 1 0 1 0 0 0 0 0 0 0 0 0 0 0 0 0 0 0 0 0 0 0 0 0 0 0 0 0 0 0 0 0 0 0 0 0 0 0 0 0 0 0 0 0 0 0 0 0 1 0 1 0 0 0 0 0 0 0 0 1 0 1 0 0 0 0 1 1 0 0 0 0 0 0 0 0 0 0 0 0 0 0 0 1 0 0 0 0 0 0 0 1 0 0 0 0 0 0 0 0 0 0 0 0 0 1 1 0 1 0 0 0 0 0 0 0 0 0 0 0 0 0 0 0 0 0 0 0 0 0 0 0 0 0 0 0 0 0 0 0 0 0 0 0 0 0 0 0 0 0 0 1 0 0 0 0 0 0 0 0 0 0 0 2 0 0 0 0 0 0 0 0 0 0 0 0 0 0 0 0 0 0 1 0 0 1 0 1 0 1 0 0 1 1 0 1 0 0 1 0 1 0 0 1 0 0 0 0 0 0 0 0 0 1 0 0 0 0 1 1 0 0 0 1 0 1 1 0 0 1 0 1 1 0 0 0 0 0 0 1 0 0 3 0 0 0 0 0 1 0 0 0 0 0 0 0 0 0 0 0 0 0 1 0 0 0 0 0 0 1 0 0 0 0 0 1 0 0 0 0 0 0 0 0 0 0 0 0 0 0 1 1 0 0 0 0 0 0 0 0 0 0 0 0 0 0 0 0 0 0 0 0 0 0 1 0 0 0 0 0 0 0 0 0 0 1 0 0 0 0 0 0 0 0 0 0 0 0 0 0 0 0 0 0 0 13 
1500.0,106,303,28.774122641509422,73.173,25.17983828382838,92.6072904290429,0.1,0 0 0 0 0 0 1 1 0 1 0 1 1 1 1 1 1 0 0 3 2 1 1 2 1 2 2 2 1 0 2 0 3 0 1 1 0 0 3 5 3 2 0 1 2 4 0 0 1 0 1 2 2 1 1 0 1 1 1 0 1 1 3 2 1 0 1 2 0 1 1 2 0 0 2 3 1 0 3 0 0 1 0 2 3 0 1 0 0 1 0 0 0 0 1 0 2 0 0 2 1 0 0 0 0 0 1 0 1 1 1 3 0 2 0 1 1 0 2 0 1 0 1 0 0 0 0 0 1 0 0 0 1 1 1 0 0 0 0 1 2 1 0 2 1 0 0 1 1 0 2 2 1 1 1 3 0 1 2 4 1 0 1 0 0 0 1 0 0 1 1 0 0 0 4 1 1 2 0 4 1 0 0 0 1 0 2 0 0 0 0 2 0 0 1 1 0 1 0 1 1 1 0 0 1 1 0 0 0 0 0 0 0 0 1 0 0 0 2 0 0 0 0 0 0 0 0 0 0 0 0 0 0 0 0 0 0 0 0 0 0 0 0 0 1 1 1 0 1 0 0 0 0 0 1 0 1 0 0 1 0 0 0 0 0 0 0 0 0 0 0 0 0 0 0 1 0 1 0 0 0 0 0 1 0 1 0 0 0 0 0 0 0 0 0 0 0 0 0 0 0 0 1 0 1 0 0 0 1 0 1 0 0 2 0 1 0 0 1 0 1 1 0 0 0 0 0 0 0 0 0 0 0 0 1 1 0 1 0 0 0 0 0 0 1 1 0 0 0 1 0 0 0 0 0 1 0 0 0 1 1 0 2 0 0 0 0 1 1 0 0 0 1 0 0 0 1 0 0 1 1 1 2 0 0 0 0 0 0 0 0 1 0 0 0 0 0 0 0 0 0 0 0 1 0 1 0 0 0 1 0 0 0 0 0 0 1 2 1 0 1 0 0 0 0 0 0 0 1 1 1 0 0 1 0 1 1 0 0 1 0 1 0 2 0 0 1 1 0 2 0 0 1 0 1 0 1 1 0 0 0 0 0 0 0 0 0 1 0 0 0 1 1 1 0 0 0 2 0 1 1 0 0 1 0 1 2 0 0 0 0 0 0 1 0 0 5 0 1 0 1 0 1 0 1 0 0 0 0 0 0 0 0 0 0 0 2 0 0 0 0 0 0 1 0 0 0 0 0 1 0 0 1 0 0 0 0 0 0 0 0 0 0 0 1 1 0 0 0 0 0 0 0 0 0 0 0 0 0 0 0 0 0 0 0 0 0 0 1 0 0 0 0 0 0 1 0 0 0 1 0 0 0 0 0 0 0 0 0 0 0 0 0 1 0 1 0 0 0 20 
2000.0,106,409,13.104377358490572,35.38200000000006,22.050256723716384,77.77628606356969,0.1,0 0 0 0 0 0 1 1 0 1 0 2 1 1 1 1 3 3 0 5 3 2 2 3 1 3 3 2 1 2 2 1 3 0 1 1 1 0 3 5 3 2 0 1 2 7 0 0 2 0 3 2 3 1 1 0 1 1 2 0 1 1 4 2 2 2 3 2 0 2 2 3 1 0 2 3 1 0 3 2 0 2 1 4 3 1 2 0 1 1 0 0 0 0 2 2 2 0 0 3 1 0 2 0 1 0 1 0 1 1 1 4 1 2 0 1 1 1 2 1 2 2 1 1 0 2 0 0 1 0 0 0 1 2 1 0 1 1 0 2 2 1 0 2 1 0 0 1 1 0 2 2 1 1 1 4 0 1 2 4 1 1 1 0 0 0 1 0 1 2 1 0 0 0 5 1 1 3 0 4 1 0 2 0 1 1 5 0 0 0 0 2 0 1 2 1 2 1 1 1 1 1 0 0 2 1 0 0 0 0 1 0 0 0 3 0 0 1 2 1 0 0 0 0 1 0 0 1 0 0 0 0 0 0 0 0 1 0 0 0 0 0 0 1 1 1 1 0 1 0 1 0 0 0 1 0 1 0 1 1 0 0 0 0 0 0 0 0 0 0 0 0 0 0 0 1 0 1 0 0 0 0 0 2 0 1 0 1 0 0 0 1 0 0 0 0 0 1 1 0 0 0 1 1 1 1 0 0 2 0 1 0 0 2 0 1 0 0 1 0 1 1 0 0 0 1 0 0 0 0 0 0 0 0 1 1 0 1 0 0 0 0 0 0 1 1 0 0 0 1 0 1 0 1 0 1 0 0 0 1 1 0 2 0 0 0 0 1 1 0 0 0 1 0 0 0 1 0 0 1 1 1 2 0 0 0 0 0 0 0 0 1 0 0 0 0 0 0 0 0 0 0 0 1 0 1 0 0 0 1 0 0 0 0 0 0 1 2 1 0 1 0 0 0 0 0 0 0 1 1 1 0 0 1 0 1 1 0 0 1 0 1 0 2 0 0 1 1 0 2 0 0 1 0 1 0 1 1 0 0 0 0 0 0 0 0 0 1 0 0 0 1 1 1 0 0 0 2 0 1 1 0 0 1 0 1 2 0 0 0 0 0 0 1 0 0 5 0 1 0 1 0 1 0 1 0 0 0 0 0 0 0 0 0 0 0 2 0 0 0 0 0 0 1 0 0 0 0 0 1 0 0 1 0 0 0 0 0 0 0 0 0 0 0 1 1 0 0 0 0 0 0 0 0 0 0 0 0 0 0 0 0 0 0 0 0 0 0 1 0 0 0 0 0 0 1 0 0 0 1 0 0 0 0 0 0 0 0 0 0 0 0 0 1 0 1 0 0 0 20 
2500.0,78,487,25.707794871794903,75.13300000000027,22.636063655030807,77.35292607802879,0.1,0 0 0 0 1 0 1 2 0 2 0 2 1 1 1 1 3 3 0 5 4 3 2 3 1 3 3 3 1 2 3 1 3 0 1 1 1 2 3 6 3 2 1 1 2 7 0 1 2 0 4 3 3 2 1 2 1 1 3 1 1 1 4 2 2 3 4 2 0 2 3 3 1 0 2 3 1 0 4 2 0 2 1 5 3 1 2 0 1 1 0 0 0 0 2 2 3 0 0 3 1 0 2 0 2 0 1 1 1 2 2 4 2 2 1 1 1 1 2 2 2 2 2 1 0 2 0 0 1 0 0 0 1 3 1 0 1 1 0 2 2 2 0 3 1 0 0 1 2 0 2 2 1 1 1 5 0 1 2 4 1 1 2 2 0 0 1 1 1 3 1 1 0 0 5 1 1 3 0 5 1 0 2 1 2 1 5 0 0 0 1 2 0 1 2 1 3 1 1 1 1 1 0 0 3 1 0 0 0 0 1 0 0 0 3 0 0 1 2 1 0 0 0 0 1 0 0 1 0 0 0 0 0 0 0 1 1 0 0 0 0 0 0 1 1 1 1 0 1 0 1 0 0 0 1 0 1 0 1 1 0 0 0 0 0 0 0 0 0 0 0 0 0 0 0 1 0 2 0 0 0 0 0 3 0 1 0 1 0 0 0 1 0 0 0 0 0 1 1 0 0 0 1 1 1 1 0 0 2 0 1 0 0 2 0 1 0 0 1 0 1 1 0 0 0 1 0 0 0 0 0 0 0 0 1 1 0 1 0 0 0 0 0 0 2 1 0 0 0 1 1 1 0 1 0 1 0 0 0 1 1 0 2 0 0 0 0 1 1 0 0 0 1 0 0 0 1 0 0 1 1 1 2 0 0 0 0 0 0 0 0 1 0 0 0 0 0 0 0 0 0 0 0 1 0 1 0 0 0 1 0 0 0 0 0 0 1 2 1 0 1 0 0 0 0 0 0 0 1 1 1 0 0 1 0 1 1 0 0 1 0 1 0 2 0 0 1 1 0 2 1 0 1 0 1 0 1 2 1 0 0 0 0 0 0 0 0 1 0 0 0 2 1 2 0 0 0 2 0 1 1 0 0 1 0 1 2 0 0 0 0 0 0 1 0 0 5 1 1 0 1 0 1 0 1 0 0 0 0 0 0 1 1 0 0 0 2 0 0 0 0 0 0 1 1 0 0 0 0 1 0 0 1 0 0 0 0 0 0 0 0 0 0 0 1 1 0 0 0 0 0 0 0 0 0 0 1 0 0 0 0 0 0 0 0 0 0 0 1 0 0 0 0 0 0 1 0 0 1 1 0 0 0 0 0 0 0 0 0 0 0 0 0 1 1 1 0 0 0 31 
3000.0,92,579,27.86130434782607,86.00499999999965,23.466326424870466,78.72769430051812,0.1,0 0 0 0 1 0 1 2 0 2 0 2 1 1 1 1 4 3 0 6 4 4 3 3 1 4 3 4 1 2 3 1 4 1 2 1 1 2 3 7 3 2 1 2 2 8 2 1 4 0 4 3 3 2 1 2 2 1 3 1 2 1 4 2 2 3 5 2 0 2 3 3 1 1 2 3 1 1 4 2 0 2 1 5 3 1 2 0 1 1 1 0 0 0 5 3 3 0 0 3 1 0 2 0 2 0 2 1 1 2 2 4 2 2 1 1 2 2 2 2 2 3 3 1 0 2 0 0 1 0 1 0 1 5 1 0 1 1 1 2 2 2 0 3 1 0 0 1 2 0 2 2 2 1 1 5 0 2 2 4 1 1 2 2 0 0 1 1 1 3 1 1 0 0 5 1 1 3 0 5 1 0 2 1 2 1 5 0 1 0 1 2 0 1 2 2 4 1 1 1 1 1 0 0 3 1 0 1 0 0 2 0 1 0 3 0 0 1 2 1 0 0 1 0 1 2 0 1 0 0 0 0 0 0 1 1 1 0 0 0 0 0 0 1 1 1 2 0 1 0 1 1 0 0 2 0 2 0 1 1 0 0 1 0 0 0 0 0 0 1 0 1 2 0 0 1 0 2 1 0 0 0 1 4 0 2 0 1 0 0 0 1 0 0 0 0 0 1 1 0 0 0 1 1 1 1 1 1 2 0 1 0 0 2 0 1 0 1 1 0 1 3 0 2 0 1 0 1 1 0 0 0 0 1 1 1 0 1 0 0 0 0 1 0 2 2 0 0 0 1 1 1 0 1 0 1 0 0 0 1 1 0 2 0 0 0 0 1 1 0 0 0 1 0 0 0 1 0 0 1 3 1 2 0 0 0 0 0 0 0 0 1 0 0 0 0 0 0 0 0 0 0 0 1 0 2 0 0 0 1 0 0 0 0 0 0 1 2 1 0 1 0 0 0 0 0 0 0 1 1 1 0 0 1 0 1 1 0 0 1 0 1 0 2 0 0 1 1 0 2 1 0 1 0 1 0 1 3 1 0 0 0 0 2 0 0 0 1 0 0 0 2 1 2 0 0 0 2 0 1 1 0 0 1 0 1 2 0 0 0 0 0 0 1 0 0 5 1 1 0 1 0 1 0 1 0 0 0 0 0 0 1 1 0 0 0 2 0 0 0 0 0 0 1 1 0 0 0 0 1 0 0 1 0 0 1 0 0 0 0 0 0 0 0 1 1 0 0 0 0 0 0 0 0 0 0 1 0 0 0 0 0 0 0 0 0 0 0 1 0 0 0 0 0 0 1 0 0 1 1 0 0 0 0 0 0 0 0 0 0 0 0 0 1 1 1 0 0 0 44 
3500.0,110,689,28.05073636363636,81.27500000000009,24.198235123367198,79.13437590711176,0.1,0 0 0 0 1 0 1 2 0 2 0 2 1 1 1 1 4 3 0 6 4 4 3 3 1 4 3 4 1 2 3 2 4 1 2 1 1 3 3 7 3 2 1 3 2 8 2 1 4 0 4 3 3 2 1 2 2 1 3 1 2 1 4 2 2 3 5 2 0 2 3 3 1 1 2 4 1 1 5 2 0 2 2 5 3 2 2 0 1 1 1 1 0 0 5 3 3 0 0 3 1 0 2 0 2 1 2 1 1 2 2 4 2 3 1 2 2 2 2 2 2 3 5 1 0 2 0 0 1 0 1 0 2 5 1 0 1 1 1 2 2 2 1 3 1 1 0 1 2 0 3 2 2 1 1 5 0 3 2 4 2 1 3 2 0 0 1 1 1 4 1 1 1 1 5 1 2 3 1 5 1 1 2 2 3 1 5 0 1 1 2 3 0 1 3 3 4 1 3 1 2 1 1 0 3 2 1 2 2 0 2 0 1 0 3 0 0 1 2 1 0 0 1 0 1 3 1 1 0 0 0 1 0 0 1 1 1 1 0 0 0 0 2 1 1 2 2 0 1 0 3 1 0 0 2 0 2 0 1 1 0 0 2 0 0 1 0 0 0 2 0 1 4 1 0 2 0 2 1 0 1 1 1 4 1 2 1 1 0 0 0 1 0 0 1 1 0 1 1 0 0 1 1 1 2 2 1 1 3 0 1 0 1 3 0 1 0 2 1 1 1 3 0 2 1 1 0 2 1 0 0 0 0 1 1 1 3 1 0 0 0 0 1 0 2 2 0 0 0 1 1 2 1 2 0 1 0 0 1 1 1 0 2 0 0 0 0 1 1 0 0 1 1 0 1 0 1 1 0 1 3 1 2 0 0 1 0 1 0 1 0 2 0 0 0 0 0 1 0 0 0 1 0 1 1 2 0 1 0 1 1 0 0 0 0 1 1 3 1 0 1 0 1 0 0 0 0 0 2 1 3 0 0 1 0 2 1 0 0 1 0 1 0 3 0 0 1 1 0 2 1 0 1 0 1 0 1 3 1 0 0 0 0 2 0 0 0 1 0 0 0 2 2 2 0 0 0 2 0 1 1 0 0 1 0 1 3 0 0 0 0 0 1 1 0 0 5 1 1 0 1 0 1 0 1 0 0 0 0 0 0 1 1 0 0 0 2 0 0 0 0 0 0 1 1 0 0 0 0 1 0 0 1 0 1 1 0 0 0 1 0 0 0 0 2 1 0 0 1 0 0 0 0 0 0 0 1 0 0 0 0 0 0 0 0 0 0 0 1 0 0 0 0 0 0 1 0 0 1 1 0 0 0 0 0 0 0 0 0 0 0 0 1 1 1 1 0 0 0 45 
4000.0,109,798,19.931972477064203,48.8130000000001,23.615499999999997,74.99273433583963,0.1,0 0 0 0 1 0 1 2 1 2 2 2 1 3 1 2 4 3 0 6 4 5 4 4 1 4 4 4 2 3 5 2 5 1 2 1 1 3 3 7 3 2 2 4 2 10 3 1 4 0 4 4 3 5 1 3 2 1 4 2 2 2 5 2 3 3 6 2 0 3 3 3 1 1 2 4 1 1 5 2 0 2 3 5 3 2 2 1 1 1 1 1 0 0 5 3 3 0 0 3 2 0 2 0 2 1 4 1 1 2 2 4 2 3 2 3 2 3 2 2 2 3 5 1 0 2 0 1 1 0 1 1 3 5 2 0 1 1 1 2 2 2 1 3 1 1 0 1 2 0 4 2 2 1 1 5 0 3 2 4 2 1 4 2 0 0 1 1 1 4 1 1 1 1 6 1 2 3 1 6 1 1 2 2 3 1 5 0 1 1 2 4 1 1 3 4 4 1 4 1 2 1 1 0 4 2 1 3 2 0 3 0 1 0 4 2 0 2 2 1 0 0 1 0 1 4 1 3 0 0 0 3 0 0 1 1 2 2 0 0 1 0 3 1 1 2 2 1 2 1 3 2 0 0 2 0 2 2 1 1 0 0 3 1 0 2 0 0 1 3 0 1 4 1 0 2 0 2 1 0 1 1 1 4 1 2 1 1 0 0 0 1 0 0 1 2 0 1 1 0 0 1 2 1 2 2 1 2 3 0 1 0 1 3 0 1 0 2 1 1 1 3 0 2 1 1 0 3 1 0 1 0 0 2 2 1 3 1 1 0 1 0 2 0 2 2 0 0 1 1 1 2 1 2 0 2 1 0 2 1 1 1 2 0 0 0 0 2 1 0 0 1 1 0 1 1 1 1 1 2 3 1 3 0 0 1 0 1 0 1 0 2 0 0 0 0 1 1 0 0 0 1 0 1 1 2 0 1 1 1 1 0 0 0 0 1 1 3 3 0 1 1 1 0 1 1 0 0 2 1 3 0 0 1 0 2 1 0 0 1 0 1 0 3 0 0 1 1 0 2 1 1 1 0 1 0 1 3 1 0 0 0 0 2 0 0 0 1 0 0 0 2 2 2 0 0 1 2 0 1 1 0 0 1 0 1 3 0 1 0 0 0 1 1 0 0 5 1 1 0 1 0 1 0 1 0 0 0 0 0 0 1 1 0 0 0 2 0 0 0 0 0 0 1 1 0 0 0 0 1 0 0 1 0 1 1 0 0 0 1 0 0 0 0 2 1 0 0 1 0 0 0 0 0 0 0 1 0 0 0 0 0 0 0 0 0 0 0 1 0 0 0 0 0 0 1 0 0 1 1 0 0 0 0 0 0 0 0 0 0 0 0 1 1 1 1 0 0 0 45 
4500.0,101,899,13.714841584158398,41.59900000000016,22.503190211345935,71.24104671857624,0.1,0 0 0 0 1 0 1 2 3 2 3 3 3 3 1 4 4 5 0 6 4 5 4 4 1 6 5 5 5 5 5 2 6 1 3 1 1 3 4 7 3 2 4 4 2 14 6 1 4 0 4 7 3 5 1 3 2 3 4 2 2 2 6 3 3 3 6 2 0 3 5 3 1 1 2 4 1 1 7 3 0 2 3 5 3 2 2 1 1 1 2 2 0 1 5 3 3 1 0 3 2 0 2 0 2 2 4 1 1 2 2 4 2 4 2 3 2 3 2 2 3 3 6 1 0 2 0 1 2 0 1 1 3 5 2 0 2 1 1 3 2 2 1 3 2 4 0 1 2 0 4 2 2 2 1 5 0 4 2 4 2 2 4 2 3 0 1 1 1 4 1 1 2 1 6 2 3 4 1 6 2 1 3 2 3 1 5 1 1 1 2 4 1 1 3 5 4 1 4 1 2 2 1 1 4 3 2 3 2 0 3 0 1 0 4 2 0 3 2 1 0 0 1 1 2 4 1 3 0 1 0 3 0 0 1 2 2 3 0 0 1 0 3 1 1 3 3 1 3 1 3 2 0 0 2 0 2 3 1 1 0 0 3 1 0 2 0 0 2 3 0 1 4 1 0 2 0 2 1 0 1 1 1 5 2 2 1 1 1 0 0 2 0 0 1 2 0 1 1 0 0 2 2 2 4 2 1 2 3 0 1 0 2 3 0 1 0 2 1 2 1 3 1 2 1 1 0 3 1 0 1 0 0 2 2 1 3 1 1 0 1 0 2 0 2 2 0 0 1 1 1 2 1 2 0 2 1 0 2 1 1 1 2 0 0 0 0 2 1 0 1 1 1 0 1 1 1 1 1 2 3 1 3 0 0 1 0 1 0 1 0 2 0 0 0 0 1 2 0 0 0 1 0 1 1 2 0 1 1 1 1 0 0 0 0 2 1 3 3 0 1 1 1 0 1 1 0 0 2 1 3 0 0 1 0 2 1 0 0 1 0 1 0 3 0 0 1 1 0 2 1 1 1 0 1 0 1 3 1 0 0 0 0 2 0 0 0 1 0 0 0 2 2 2 0 0 1 2 0 1 1 0 0 1 0 1 3 0 1 0 0 0 1 1 0 0 5 1 1 0 1 0 1 0 1 0 0 0 0 0 0 1 1 0 0 0 2 0 0 0 0 0 0 1 1 0 0 0 0 1 0 0 1 0 1 1 0 0 0 1 0 0 0 0 2 1 0 0 1 0 0 0 0 0 0 0 1 0 0 0 0 0 0 0 0 0 0 0 1 0 0 0 0 0 0 1 0 0 1 1 0 0 0 0 0 0 0 0 0 0 0 0 1 1 1 1 0 0 0 45 
