time[ms],#packets last interval,#packets overall,overall avrg. packetsize [byte],overall sum packetsize [byte],overall thrp [Mb/s],tpht last interval [Mb/s]
0.0,0,0,NaN,0.0,NaN,NaN
500.0,13,13,831.2307692307693,10806.0,0.172896,0.172896
1000.0,7,20,672.5714285714286,15514.0,0.124112,0.075328
1500.0,0,20,NaN,15514.0,0.08274133333333333,NaN
2000.0,5,25,406.2,17545.0,0.07018,0.032496
2500.0,13,38,505.15384615384613,24112.0,0.07715839999999999,0.105072
3000.0,14,52,651.3571428571429,33231.0,0.088616,0.145904
3500.0,4,56,655.75,35854.0,0.081952,0.041968
4000.0,7,63,350.85714285714283,38310.0,0.07662,0.039296
4500.0,22,85,625.7272727272727,52076.0,0.09257955555555557,0.220256
