time[ms],#packets last interval,#packets overall,overall avrg. packetsize [byte],overall sum packetsize [byte],overall thrp [Mb/s],tpht last interval [Mb/s]
0.0,0,0,NaN,0.0,NaN,NaN
500.0,5,5,920.2,4601.0,0.073616,0.073616
1000.0,1,6,593.0,5194.0,0.041552,0.009488
1500.0,5,11,747.0,8929.0,0.047621333333333335,0.05976
2000.0,6,17,825.6666666666666,13883.0,0.055532,0.079264
2500.0,1,18,547.0,14430.0,0.046176,0.008752
3000.0,4,22,564.0,16686.0,0.044496,0.036096
3500.0,5,27,385.8,18615.0,0.04254857142857143,0.030864
4000.0,0,27,NaN,18615.0,0.03723,NaN
4500.0,0,27,NaN,18615.0,0.033093333333333336,NaN
