time[ms],#packets last interval,#packets overall,overall avrg. packetsize [byte],overall sum packetsize [byte],overall thrp [Mb/s],tpht last interval [Mb/s]
0.0,0,0,NaN,0.0,NaN,NaN
500.0,4,4,633.5,2534.0,0.040544,0.040544
1000.0,0,4,NaN,2534.0,0.020272,NaN
1500.0,10,14,468.7,7221.0,0.038512,0.074992
2000.0,15,29,721.0666666666667,18037.0,0.072148,0.173056
2500.0,4,33,496.75,20024.0,0.0640768,0.031792
3000.0,6,39,807.6666666666666,24870.0,0.06632,0.077536
3500.0,6,45,503.8333333333333,27893.0,0.06375542857142857,0.048368
4000.0,10,55,609.4,33987.0,0.067974,0.097504
4500.0,7,62,530.0,37697.0,0.06701688888888889,0.05936
