time[ms],#packets last interval,#packets overall,overall avrg. packetsize [byte],overall sum packetsize [byte],overall thrp [Mb/s],tpht last interval [Mb/s]
0.0,0,0,NaN,0.0,NaN,NaN
500.0,1,1,575.0,575.0,0.0092,0.0092
1000.0,1,2,1154.0,1729.0,0.013832,0.018464
1500.0,12,14,592.75,8842.0,0.047157333333333336,0.113808
2000.0,14,28,635.9285714285714,17745.0,0.07098,0.142448
2500.0,12,40,436.6666666666667,22985.0,0.073552,0.08384
3000.0,7,47,511.0,26562.0,0.070832,0.057232
3500.0,4,51,543.0,28734.0,0.06567771428571428,0.034752
4000.0,11,62,560.7272727272727,34902.0,0.069804,0.098688
4500.0,5,67,322.4,36514.0,0.06491377777777778,0.025792
