time[ms],#packets last interval,#packets overall,overall avrg. packetsize [byte],overall sum packetsize [byte],overall thrp [Mb/s],tpht last interval [Mb/s]
0.0,0,0,NaN,0.0,NaN,NaN
500.0,0,0,NaN,0.0,0.0,NaN
1000.0,10,10,555.7,5557.0,0.044456,0.088912
1500.0,8,18,623.5,10545.0,0.05624,0.079808
2000.0,2,20,1078.5,12702.0,0.050808,0.034512
2500.0,8,28,562.25,17200.0,0.05504,0.071968
3000.0,11,39,522.0,22942.0,0.061178666666666666,0.091872
3500.0,1,40,1061.0,24003.0,0.054864,0.016976
4000.0,8,48,685.625,29488.0,0.058976,0.08776
4500.0,0,48,NaN,29488.0,0.05242311111111111,NaN
