time[ms],#packets last interval,#packets overall,overall avrg. packetsize [byte],overall sum packetsize [byte],overall thrp [Mb/s],tpht last interval [Mb/s]
0.0,0,0,NaN,0.0,NaN,NaN
500.0,202,202,571.480198019802,115439.0,1.847024,1.847024
1000.0,245,447,620.4571428571429,267451.0,2.139608,2.432192
1500.0,252,699,610.0198412698413,421176.0,2.246272,2.4596
2000.0,270,969,548.3962962962963,569243.0,2.276972,2.369072
2500.0,250,1219,612.992,722491.0,2.3119712000000003,2.451968
3000.0,244,1463,600.2868852459017,868961.0,2.317229333333333,2.34352
3500.0,243,1706,582.8765432098766,1010600.0,2.309942857142857,2.266224
4000.0,251,1957,583.0916334661355,1156956.0,2.313912,2.341696
4500.0,251,2208,571.0358565737051,1300286.0,2.3116195555555556,2.29328
