time[ms],#packets last interval,#packets overall,overall avrg. packetsize [byte],overall sum packetsize [byte],overall offer [Mb/s],offer last interval [Mb/s]
500.0,87,87,641.8620689655172,55842.0,Infinity,Infinity
1000.0,124,211,596.2016129032259,129771.0,2.076336,1.182864
1500.0,105,316,562.8,188865.0,1.51092,0.9455039999999999
2000.0,97,413,640.4123711340206,250985.0,1.3385866666666666,0.99392
2500.0,102,515,577.2254901960785,309862.0,1.239448,0.942032
3000.0,93,608,623.6666666666666,367863.0,1.1771615999999998,0.928016
3500.0,95,703,681.1263157894737,432570.0,1.15352,1.035312
4000.0,94,797,617.5,490615.0,1.1214057142857143,0.92872
4500.0,117,914,612.1880341880342,562241.0,1.124482,1.146016
