time[ms],#packets last interval,#packets overall,overall avrg. packetsize [byte],overall sum packetsize [byte],overall offer [Mb/s],offer last interval [Mb/s]
500.0,189,189,546.3650793650794,103263.0,Infinity,Infinity
1000.0,206,395,626.757281553398,232375.0,3.718,2.0657919999999996
1500.0,208,603,578.9086538461538,352788.0,2.822304,1.926608
2000.0,186,789,588.4623655913979,462242.0,2.465290666666667,1.751264
2500.0,206,995,553.0873786407767,576178.0,2.304712,1.822976
3000.0,193,1188,641.1347150259068,699917.0,2.2397344,1.979824
3500.0,196,1384,599.1938775510204,817359.0,2.179624,1.8790719999999999
4000.0,184,1568,617.375,930956.0,2.1278994285714288,1.817552
4500.0,203,1771,597.9113300492611,1052332.0,2.104664,1.942016
