time[ms],#packets last interval,#packets overall,overall avrg. packetsize [byte],overall sum packetsize [byte],overall thrp [Mb/s],tpht last interval [Mb/s]
500.0,189,189,546.3650793650794,103263.0,Infinity,Infinity
1000.0,206,395,626.757281553398,232375.0,3.718,2.0657919999999996
1500.0,208,603,578.9086538461538,352788.0,2.822304,1.926608
2000.0,185,788,587.4918918918919,461474.0,2.461194666666667,1.738976
2500.0,205,993,552.180487804878,574671.0,2.298684,1.8111519999999999
3000.0,193,1186,640.8290155440415,698351.0,2.2347232,1.97888
3500.0,198,1384,601.0505050505051,817359.0,2.179624,1.904128
4000.0,183,1567,615.5956284153006,930013.0,2.125744,1.802464
4500.0,204,1771,599.6029411764706,1052332.0,2.104664,1.957104
