\BOOKMARK [1][-]{section.1}{\376\377\000F\000o\000l\000g\000e\000n}{}% 1
\BOOKMARK [1][-]{section.2}{\376\377\000R\000e\000i\000h\000e\000n}{}% 2
\BOOKMARK [1][-]{section.3}{\376\377\000S\000t\000e\000t\000i\000g\000k\000e\000i\000t}{}% 3
\BOOKMARK [1][-]{section.4}{\376\377\000A\000b\000l\000e\000i\000t\000e\000n}{}% 4
\BOOKMARK [1][-]{section.5}{\376\377\000I\000n\000t\000e\000g\000r\000i\000e\000r\000e\000n}{}% 5
\BOOKMARK [1][-]{section.6}{\376\377\000S\000o\000n\000s\000t\000i\000g\000e\000s}{}% 6
