time[ms],#packets last interval,#packets overall,overall avrg. packetsize [byte],overall sum packetsize [byte],overall offer [Mb/s],offer last interval [Mb/s]
500.0,414,414,604.1884057971015,250134.0,Infinity,Infinity
1000.0,413,827,598.951573849879,497501.0,7.960016,3.957872
1500.0,415,1242,599.5469879518072,746313.0,5.970504,3.9809919999999996
2000.0,427,1669,573.1053864168618,991029.0,5.285488,3.915456
2500.0,412,2081,600.7742718446602,1238548.0,4.954192,3.9603040000000003
3000.0,419,2500,585.5178997613365,1483880.0,4.748416,3.9253119999999995
3500.0,410,2910,609.4439024390244,1733752.0,4.623338666666667,3.9979520000000006
4000.0,416,3326,593.4230769230769,1980616.0,4.527122285714285,3.949824
4500.0,404,3730,624.4851485148515,2232908.0,4.465816,4.036672
