time[ms],#packets last interval,#packets overall,overall avrg. packetsize [byte],overall sum packetsize [byte],overall thrp [Mb/s],tpht last interval [Mb/s]
0.0,0,0,NaN,0.0,NaN,NaN
500.0,413,413,603.2590799031477,249146.0,3.986336,3.986336
1000.0,413,826,600.3825665859564,497104.0,3.976832,3.967328
1500.0,415,1241,597.9012048192772,745233.0,3.974576,3.9700640000000003
2000.0,427,1668,572.9929742388758,989901.0,3.959604,3.9146879999999995
2500.0,412,2080,602.2791262135922,1238040.0,3.961728,3.970224
3000.0,419,2499,584.2482100238664,1482840.0,3.95424,3.9168
3500.0,410,2909,609.1634146341463,1732597.0,3.9602217142857143,3.996112
4000.0,416,3325,594.2716346153846,1979814.0,3.959628,3.955472
4500.0,404,3729,624.5371287128713,2232127.0,3.9682257777777776,4.037008
