time[ms],#packets last interval,#packets overall,overall avrg. packetsize [byte],overall sum packetsize [byte],overall offer [Mb/s],offer last interval [Mb/s]
0.0,0,0,NaN,0.0,NaN,NaN
500.0,92,92,605.7065217391304,55725.0,0.8916,0.8915999999999998
1000.0,118,210,573.5169491525423,123400.0,0.9872,1.0828
1500.0,109,319,647.3853211009174,193965.0,1.03448,1.12904
2000.0,96,415,600.1666666666666,251581.0,1.006324,0.921856
2500.0,110,525,587.4909090909091,316205.0,1.011856,1.033984
3000.0,113,638,591.7522123893805,383073.0,1.021528,1.069888
3500.0,93,731,593.1612903225806,438237.0,1.0016845714285714,0.882624
4000.0,112,843,592.0089285714286,504542.0,1.009084,1.06088
4500.0,118,961,619.6186440677966,577657.0,1.0269457777777777,1.16984
