time[ms],#packets last interval,#packets overall,overall avrg. packetsize [byte],overall sum packetsize [byte],overall offer [Mb/s],offer last interval [Mb/s]
0.0,0,0,NaN,0.0,NaN,NaN
500.0,87,87,661.5747126436781,57557.0,0.920912,0.920912
1000.0,116,203,593.6724137931035,126423.0,1.011384,1.101856
1500.0,90,293,572.9111111111112,177985.0,0.9492533333333334,0.8249920000000002
2000.0,114,407,687.219298245614,256328.0,1.0253119999999998,1.253488
2500.0,114,521,598.5438596491229,324562.0,1.0385984000000001,1.091744
3000.0,90,611,582.6888888888889,377004.0,1.005344,0.839072
3500.0,121,732,660.3471074380166,456906.0,1.0443565714285714,1.278432
4000.0,109,841,570.3302752293578,519072.0,1.038144,0.994656
4500.0,114,955,611.8245614035088,588820.0,1.0467911111111112,1.115968
