time[ms],#packets last interval,#packets overall,overall avrg. packetsize [byte],overall sum packetsize [byte],overall thrp [Mb/s],tpht last interval [Mb/s]
0.0,0,0,NaN,0.0,NaN,NaN
500.0,9,9,473.6666666666667,4263.0,0.068208,0.068208
1000.0,1,10,1131.0,5394.0,0.043152,0.018096
1500.0,3,13,702.6666666666666,7502.0,0.04001066666666667,0.033728
2000.0,21,34,500.2857142857143,18008.0,0.072032,0.168096
2500.0,18,52,659.1111111111111,29872.0,0.0955904,0.189824
3000.0,17,69,449.7647058823529,37518.0,0.100048,0.122336
3500.0,12,81,674.0,45606.0,0.1042422857142857,0.129408
4000.0,19,100,530.4736842105264,55685.0,0.11137,0.161264
4500.0,3,103,352.6666666666667,56743.0,0.10087644444444444,0.016928
