time[ms],#packets last interval,#packets overall,overall avrg. packetsize [byte],overall sum packetsize [byte],overall offer [Mb/s],offer last interval [Mb/s]
0.0,0,0,NaN,0.0,NaN,NaN
500.0,115,115,562.2347826086957,64657.0,1.034512,1.034512
1000.0,103,218,545.5533980582525,120849.0,0.966792,0.8990720000000001
1500.0,109,327,579.4770642201835,184012.0,0.9813973333333333,1.010608
2000.0,104,431,607.9711538461538,247241.0,0.988964,1.011664
2500.0,113,544,581.4159292035398,312941.0,1.0014112,1.0512
3000.0,123,667,610.4878048780488,388031.0,1.0347493333333333,1.20144
3500.0,104,771,664.0865384615385,457096.0,1.0447908571428572,1.10504
4000.0,102,873,603.8235294117648,518686.0,1.0373720000000002,0.9854400000000001
4500.0,92,965,624.9565217391304,576182.0,1.0243235555555554,0.9199359999999999
