time[ms],#packets last interval,#packets overall,overall avrg. packetsize [byte],overall sum packetsize [byte],overall thrp [Mb/s],tpht last interval [Mb/s]
0.0,0,0,NaN,0.0,NaN,NaN
500.0,1,1,211.0,211.0,0.003376,0.003376
1000.0,11,12,645.7272727272727,7314.0,0.058512,0.113648
1500.0,0,12,NaN,7314.0,0.039008,NaN
2000.0,0,12,NaN,7314.0,0.029256,NaN
2500.0,2,14,561.0,8436.0,0.0269952,0.017952
3000.0,0,14,NaN,8436.0,0.022496,NaN
3500.0,0,14,NaN,8436.0,0.019282285714285714,NaN
4000.0,2,16,257.5,8951.0,0.017902,0.00824
4500.0,0,16,NaN,8951.0,0.01591288888888889,NaN
