Copyright 1986-2019 Xilinx, Inc. All Rights Reserved.
--------------------------------------------------------------------------------------------------------------------------------------------------------------------------------------------------------------------------
| Tool Version : Vivado v.2019.2 (win64) Build 2708876 Wed Nov  6 21:40:23 MST 2019
| Date         : Mon Mar 30 12:14:08 2020
| Host         : DESKTOP-3O4G7T6 running 64-bit major release  (build 9200)
| Command      : report_timing_summary -max_paths 10 -file ThirtyTwoBitAdder_timing_summary_routed.rpt -pb ThirtyTwoBitAdder_timing_summary_routed.pb -rpx ThirtyTwoBitAdder_timing_summary_routed.rpx -warn_on_violation
| Design       : ThirtyTwoBitAdder
| Device       : 7a35t-cpg236
| Speed File   : -1  PRODUCTION 1.23 2018-06-13
--------------------------------------------------------------------------------------------------------------------------------------------------------------------------------------------------------------------------

Timing Summary Report

------------------------------------------------------------------------------------------------
| Timer Settings
| --------------
------------------------------------------------------------------------------------------------

  Enable Multi Corner Analysis               :  Yes
  Enable Pessimism Removal                   :  Yes
  Pessimism Removal Resolution               :  Nearest Common Node
  Enable Input Delay Default Clock           :  No
  Enable Preset / Clear Arcs                 :  No
  Disable Flight Delays                      :  No
  Ignore I/O Paths                           :  No
  Timing Early Launch at Borrowing Latches   :  No
  Borrow Time for Max Delay Exceptions       :  Yes
  Merge Timing Exceptions                    :  Yes

  Corner  Analyze    Analyze    
  Name    Max Paths  Min Paths  
  ------  ---------  ---------  
  Slow    Yes        Yes        
  Fast    Yes        Yes        



check_timing report

Table of Contents
-----------------
1. checking no_clock
2. checking constant_clock
3. checking pulse_width_clock
4. checking unconstrained_internal_endpoints
5. checking no_input_delay
6. checking no_output_delay
7. checking multiple_clock
8. checking generated_clocks
9. checking loops
10. checking partial_input_delay
11. checking partial_output_delay
12. checking latch_loops

1. checking no_clock
--------------------
 There are 0 register/latch pins with no clock.


2. checking constant_clock
--------------------------
 There are 0 register/latch pins with constant_clock.


3. checking pulse_width_clock
-----------------------------
 There are 0 register/latch pins which need pulse_width check


4. checking unconstrained_internal_endpoints
--------------------------------------------
 There are 0 pins that are not constrained for maximum delay.

 There are 0 pins that are not constrained for maximum delay due to constant clock.


5. checking no_input_delay
--------------------------
 There are 0 input ports with no input delay specified.

 There are 0 input ports with no input delay but user has a false path constraint.


6. checking no_output_delay
---------------------------
 There are 0 ports with no output delay specified.

 There are 0 ports with no output delay but user has a false path constraint

 There are 0 ports with no output delay but with a timing clock defined on it or propagating through it


7. checking multiple_clock
--------------------------
 There are 0 register/latch pins with multiple clocks.


8. checking generated_clocks
----------------------------
 There are 0 generated clocks that are not connected to a clock source.


9. checking loops
-----------------
 There are 0 combinational loops in the design.


10. checking partial_input_delay
--------------------------------
 There are 64 input ports with partial input delay specified. (HIGH)


11. checking partial_output_delay
---------------------------------
 There are 0 ports with partial output delay specified.


12. checking latch_loops
------------------------
 There are 0 combinational latch loops in the design through latch input



------------------------------------------------------------------------------------------------
| Design Timing Summary
| ---------------------
------------------------------------------------------------------------------------------------

    WNS(ns)      TNS(ns)  TNS Failing Endpoints  TNS Total Endpoints      WHS(ns)      THS(ns)  THS Failing Endpoints  THS Total Endpoints     WPWS(ns)     TPWS(ns)  TPWS Failing Endpoints  TPWS Total Endpoints  
    -------      -------  ---------------------  -------------------      -------      -------  ---------------------  -------------------     --------     --------  ----------------------  --------------------  
      1.178        0.000                      0                   32           NA           NA                     NA                   NA           NA           NA                      NA                    NA  


All user specified timing constraints are met.


------------------------------------------------------------------------------------------------
| Clock Summary
| -------------
------------------------------------------------------------------------------------------------


------------------------------------------------------------------------------------------------
| Intra Clock Table
| -----------------
------------------------------------------------------------------------------------------------

Clock             WNS(ns)      TNS(ns)  TNS Failing Endpoints  TNS Total Endpoints      WHS(ns)      THS(ns)  THS Failing Endpoints  THS Total Endpoints     WPWS(ns)     TPWS(ns)  TPWS Failing Endpoints  TPWS Total Endpoints  
-----             -------      -------  ---------------------  -------------------      -------      -------  ---------------------  -------------------     --------     --------  ----------------------  --------------------  


------------------------------------------------------------------------------------------------
| Inter Clock Table
| -----------------
------------------------------------------------------------------------------------------------

From Clock    To Clock          WNS(ns)      TNS(ns)  TNS Failing Endpoints  TNS Total Endpoints      WHS(ns)      THS(ns)  THS Failing Endpoints  THS Total Endpoints  
----------    --------          -------      -------  ---------------------  -------------------      -------      -------  ---------------------  -------------------  


------------------------------------------------------------------------------------------------
| Other Path Groups Table
| -----------------------
------------------------------------------------------------------------------------------------

Path Group        From Clock        To Clock              WNS(ns)      TNS(ns)  TNS Failing Endpoints  TNS Total Endpoints      WHS(ns)      THS(ns)  THS Failing Endpoints  THS Total Endpoints  
----------        ----------        --------              -------      -------  ---------------------  -------------------      -------      -------  ---------------------  -------------------  
**default**       input port clock                          1.178        0.000                      0                   32                                                                        


------------------------------------------------------------------------------------------------
| Timing Details
| --------------
------------------------------------------------------------------------------------------------


---------------------------------------------------------------------------------------------------
Path Group:  **default**
From Clock:  input port clock
  To Clock:  

Setup :            0  Failing Endpoints,  Worst Slack        1.178ns,  Total Violation        0.000ns
Hold  :           NA  Failing Endpoints,  Worst Slack           NA  ,  Total Violation           NA
---------------------------------------------------------------------------------------------------


Max Delay Paths
--------------------------------------------------------------------------------------
Slack (MET) :             1.178ns  (required time - arrival time)
  Source:                 b[0]
                            (input port)
  Destination:            s[27]
  Path Group:             **default**
  Path Type:              Max at Slow Process Corner
  Requirement:            20.000ns  (MaxDelay Path 20.000ns)
  Data Path Delay:        18.822ns  (logic 5.666ns (30.102%)  route 13.156ns (69.898%))
  Logic Levels:           14  (IBUF=1 LUT5=5 LUT6=7 OBUF=1)
  Output Delay:           0.000ns
  Timing Exception:       MaxDelay Path 20.000ns

    Location             Delay type                Incr(ns)  Path(ns)    Netlist Resource(s)
  -------------------------------------------------------------------    -------------------
    V7                                                0.000     0.000 r  b[0] (IN)
                         net (fo=0)                   0.000     0.000    b[0]
    V7                   IBUF (Prop_ibuf_I_O)         0.928     0.928 r  b_IBUF[0]_inst/O
                         net (fo=4, routed)           2.930     3.858    b_IBUF[0]
    SLICE_X0Y17          LUT6 (Prop_lut6_I1_O)        0.124     3.982 r  s_OBUF[4]_inst_i_2/O
                         net (fo=4, routed)           0.738     4.720    nolabel_line64/n3
    SLICE_X0Y21          LUT6 (Prop_lut6_I4_O)        0.124     4.844 r  s_OBUF[13]_inst_i_5/O
                         net (fo=1, routed)           0.300     5.144    and1__6
    SLICE_X0Y22          LUT6 (Prop_lut6_I0_O)        0.124     5.268 r  s_OBUF[13]_inst_i_4/O
                         net (fo=2, routed)           0.623     5.891    n2
    SLICE_X0Y27          LUT6 (Prop_lut6_I4_O)        0.124     6.015 r  s_OBUF[18]_inst_i_5/O
                         net (fo=1, routed)           0.159     6.174    and1__11
    SLICE_X0Y27          LUT6 (Prop_lut6_I0_O)        0.124     6.298 r  s_OBUF[18]_inst_i_4/O
                         net (fo=2, routed)           0.620     6.918    nolabel_line67/n1
    SLICE_X0Y34          LUT6 (Prop_lut6_I4_O)        0.124     7.042 r  s_OBUF[23]_inst_i_5/O
                         net (fo=1, routed)           0.635     7.677    and1__16
    SLICE_X0Y38          LUT6 (Prop_lut6_I0_O)        0.124     7.801 r  s_OBUF[23]_inst_i_4/O
                         net (fo=2, routed)           0.595     8.396    nolabel_line68/n2
    SLICE_X0Y43          LUT5 (Prop_lut5_I0_O)        0.124     8.520 r  s_OBUF[23]_inst_i_3/O
                         net (fo=1, routed)           0.562     9.081    n5
    SLICE_X0Y46          LUT5 (Prop_lut5_I0_O)        0.124     9.205 r  s_OBUF[23]_inst_i_2/O
                         net (fo=2, routed)           0.586     9.792    nolabel_line69/n2
    SLICE_X0Y48          LUT5 (Prop_lut5_I0_O)        0.150     9.942 r  s_OBUF[25]_inst_i_2/O
                         net (fo=3, routed)           0.972    10.914    n6
    SLICE_X0Y62          LUT5 (Prop_lut5_I0_O)        0.320    11.234 r  s_OBUF[27]_inst_i_2/O
                         net (fo=2, routed)           1.079    12.313    nolabel_line70/n2
    SLICE_X0Y75          LUT5 (Prop_lut5_I2_O)        0.352    12.665 r  s_OBUF[27]_inst_i_1/O
                         net (fo=1, routed)           3.356    16.022    s_OBUF[27]
    C15                  OBUF (Prop_obuf_I_O)         2.800    18.822 r  s_OBUF[27]_inst/O
                         net (fo=0)                   0.000    18.822    s[27]
    C15                                                               r  s[27] (OUT)
  -------------------------------------------------------------------    -------------------

                         max delay                   20.000    20.000    
                         clock pessimism              0.000    20.000    
                         output delay                -0.000    20.000    
  -------------------------------------------------------------------
                         required time                         20.000    
                         arrival time                         -18.822    
  -------------------------------------------------------------------
                         slack                                  1.178    

Slack (MET) :             1.427ns  (required time - arrival time)
  Source:                 b[0]
                            (input port)
  Destination:            s[30]
  Path Group:             **default**
  Path Type:              Max at Slow Process Corner
  Requirement:            20.000ns  (MaxDelay Path 20.000ns)
  Data Path Delay:        18.573ns  (logic 5.535ns (29.802%)  route 13.038ns (70.198%))
  Logic Levels:           15  (IBUF=1 LUT5=4 LUT6=9 OBUF=1)
  Output Delay:           0.000ns
  Timing Exception:       MaxDelay Path 20.000ns

    Location             Delay type                Incr(ns)  Path(ns)    Netlist Resource(s)
  -------------------------------------------------------------------    -------------------
    V7                                                0.000     0.000 r  b[0] (IN)
                         net (fo=0)                   0.000     0.000    b[0]
    V7                   IBUF (Prop_ibuf_I_O)         0.928     0.928 r  b_IBUF[0]_inst/O
                         net (fo=4, routed)           2.930     3.858    b_IBUF[0]
    SLICE_X0Y17          LUT6 (Prop_lut6_I1_O)        0.124     3.982 r  s_OBUF[4]_inst_i_2/O
                         net (fo=4, routed)           0.738     4.720    nolabel_line64/n3
    SLICE_X0Y21          LUT6 (Prop_lut6_I4_O)        0.124     4.844 r  s_OBUF[13]_inst_i_5/O
                         net (fo=1, routed)           0.300     5.144    and1__6
    SLICE_X0Y22          LUT6 (Prop_lut6_I0_O)        0.124     5.268 r  s_OBUF[13]_inst_i_4/O
                         net (fo=2, routed)           0.623     5.891    n2
    SLICE_X0Y27          LUT6 (Prop_lut6_I4_O)        0.124     6.015 r  s_OBUF[18]_inst_i_5/O
                         net (fo=1, routed)           0.159     6.174    and1__11
    SLICE_X0Y27          LUT6 (Prop_lut6_I0_O)        0.124     6.298 r  s_OBUF[18]_inst_i_4/O
                         net (fo=2, routed)           0.620     6.918    nolabel_line67/n1
    SLICE_X0Y34          LUT6 (Prop_lut6_I4_O)        0.124     7.042 r  s_OBUF[23]_inst_i_5/O
                         net (fo=1, routed)           0.635     7.677    and1__16
    SLICE_X0Y38          LUT6 (Prop_lut6_I0_O)        0.124     7.801 r  s_OBUF[23]_inst_i_4/O
                         net (fo=2, routed)           0.598     8.399    nolabel_line68/n2
    SLICE_X0Y43          LUT6 (Prop_lut6_I4_O)        0.124     8.523 r  s_OBUF[28]_inst_i_5/O
                         net (fo=1, routed)           0.563     9.086    and1__21
    SLICE_X0Y46          LUT6 (Prop_lut6_I0_O)        0.124     9.210 r  s_OBUF[28]_inst_i_4/O
                         net (fo=2, routed)           0.855    10.065    nolabel_line69/n3
    SLICE_X0Y61          LUT5 (Prop_lut5_I0_O)        0.124    10.189 r  s_OBUF[28]_inst_i_3/O
                         net (fo=1, routed)           0.807    10.997    nolabel_line70/n1
    SLICE_X0Y74          LUT5 (Prop_lut5_I0_O)        0.124    11.121 r  s_OBUF[28]_inst_i_2/O
                         net (fo=2, routed)           0.448    11.569    nolabel_line70/n3
    SLICE_X0Y75          LUT5 (Prop_lut5_I0_O)        0.119    11.688 r  s_OBUF[30]_inst_i_2/O
                         net (fo=2, routed)           0.760    12.448    nolabel_line71/n1
    SLICE_X0Y80          LUT5 (Prop_lut5_I2_O)        0.326    12.774 r  s_OBUF[30]_inst_i_1/O
                         net (fo=1, routed)           3.000    15.774    s_OBUF[30]
    L3                   OBUF (Prop_obuf_I_O)         2.798    18.573 r  s_OBUF[30]_inst/O
                         net (fo=0)                   0.000    18.573    s[30]
    L3                                                                r  s[30] (OUT)
  -------------------------------------------------------------------    -------------------

                         max delay                   20.000    20.000    
                         clock pessimism              0.000    20.000    
                         output delay                -0.000    20.000    
  -------------------------------------------------------------------
                         required time                         20.000    
                         arrival time                         -18.573    
  -------------------------------------------------------------------
                         slack                                  1.427    

Slack (MET) :             1.564ns  (required time - arrival time)
  Source:                 b[0]
                            (input port)
  Destination:            s[29]
  Path Group:             **default**
  Path Type:              Max at Slow Process Corner
  Requirement:            20.000ns  (MaxDelay Path 20.000ns)
  Data Path Delay:        18.436ns  (logic 5.356ns (29.049%)  route 13.081ns (70.951%))
  Logic Levels:           15  (IBUF=1 LUT3=1 LUT5=3 LUT6=9 OBUF=1)
  Output Delay:           0.000ns
  Timing Exception:       MaxDelay Path 20.000ns

    Location             Delay type                Incr(ns)  Path(ns)    Netlist Resource(s)
  -------------------------------------------------------------------    -------------------
    V7                                                0.000     0.000 r  b[0] (IN)
                         net (fo=0)                   0.000     0.000    b[0]
    V7                   IBUF (Prop_ibuf_I_O)         0.928     0.928 r  b_IBUF[0]_inst/O
                         net (fo=4, routed)           2.930     3.858    b_IBUF[0]
    SLICE_X0Y17          LUT6 (Prop_lut6_I1_O)        0.124     3.982 r  s_OBUF[4]_inst_i_2/O
                         net (fo=4, routed)           0.738     4.720    nolabel_line64/n3
    SLICE_X0Y21          LUT6 (Prop_lut6_I4_O)        0.124     4.844 r  s_OBUF[13]_inst_i_5/O
                         net (fo=1, routed)           0.300     5.144    and1__6
    SLICE_X0Y22          LUT6 (Prop_lut6_I0_O)        0.124     5.268 r  s_OBUF[13]_inst_i_4/O
                         net (fo=2, routed)           0.623     5.891    n2
    SLICE_X0Y27          LUT6 (Prop_lut6_I4_O)        0.124     6.015 r  s_OBUF[18]_inst_i_5/O
                         net (fo=1, routed)           0.159     6.174    and1__11
    SLICE_X0Y27          LUT6 (Prop_lut6_I0_O)        0.124     6.298 r  s_OBUF[18]_inst_i_4/O
                         net (fo=2, routed)           0.620     6.918    nolabel_line67/n1
    SLICE_X0Y34          LUT6 (Prop_lut6_I4_O)        0.124     7.042 r  s_OBUF[23]_inst_i_5/O
                         net (fo=1, routed)           0.635     7.677    and1__16
    SLICE_X0Y38          LUT6 (Prop_lut6_I0_O)        0.124     7.801 r  s_OBUF[23]_inst_i_4/O
                         net (fo=2, routed)           0.598     8.399    nolabel_line68/n2
    SLICE_X0Y43          LUT6 (Prop_lut6_I4_O)        0.124     8.523 r  s_OBUF[28]_inst_i_5/O
                         net (fo=1, routed)           0.563     9.086    and1__21
    SLICE_X0Y46          LUT6 (Prop_lut6_I0_O)        0.124     9.210 r  s_OBUF[28]_inst_i_4/O
                         net (fo=2, routed)           0.855    10.065    nolabel_line69/n3
    SLICE_X0Y61          LUT5 (Prop_lut5_I0_O)        0.124    10.189 r  s_OBUF[28]_inst_i_3/O
                         net (fo=1, routed)           0.807    10.997    nolabel_line70/n1
    SLICE_X0Y74          LUT5 (Prop_lut5_I0_O)        0.124    11.121 r  s_OBUF[28]_inst_i_2/O
                         net (fo=2, routed)           0.448    11.569    nolabel_line70/n3
    SLICE_X0Y75          LUT5 (Prop_lut5_I0_O)        0.119    11.688 r  s_OBUF[30]_inst_i_2/O
                         net (fo=2, routed)           0.760    12.448    nolabel_line71/n1
    SLICE_X0Y80          LUT3 (Prop_lut3_I0_O)        0.332    12.780 r  s_OBUF[29]_inst_i_1/O
                         net (fo=1, routed)           3.044    15.823    s_OBUF[29]
    A14                  OBUF (Prop_obuf_I_O)         2.613    18.436 r  s_OBUF[29]_inst/O
                         net (fo=0)                   0.000    18.436    s[29]
    A14                                                               r  s[29] (OUT)
  -------------------------------------------------------------------    -------------------

                         max delay                   20.000    20.000    
                         clock pessimism              0.000    20.000    
                         output delay                -0.000    20.000    
  -------------------------------------------------------------------
                         required time                         20.000    
                         arrival time                         -18.436    
  -------------------------------------------------------------------
                         slack                                  1.564    

Slack (MET) :             1.662ns  (required time - arrival time)
  Source:                 b[0]
                            (input port)
  Destination:            s[31]
  Path Group:             **default**
  Path Type:              Max at Slow Process Corner
  Requirement:            20.000ns  (MaxDelay Path 20.000ns)
  Data Path Delay:        18.338ns  (logic 5.143ns (28.047%)  route 13.194ns (71.953%))
  Logic Levels:           15  (IBUF=1 LUT5=2 LUT6=11 OBUF=1)
  Output Delay:           0.000ns
  Timing Exception:       MaxDelay Path 20.000ns

    Location             Delay type                Incr(ns)  Path(ns)    Netlist Resource(s)
  -------------------------------------------------------------------    -------------------
    V7                                                0.000     0.000 r  b[0] (IN)
                         net (fo=0)                   0.000     0.000    b[0]
    V7                   IBUF (Prop_ibuf_I_O)         0.928     0.928 r  b_IBUF[0]_inst/O
                         net (fo=4, routed)           2.930     3.858    b_IBUF[0]
    SLICE_X0Y17          LUT6 (Prop_lut6_I1_O)        0.124     3.982 r  s_OBUF[4]_inst_i_2/O
                         net (fo=4, routed)           0.738     4.720    nolabel_line64/n3
    SLICE_X0Y21          LUT6 (Prop_lut6_I4_O)        0.124     4.844 r  s_OBUF[13]_inst_i_5/O
                         net (fo=1, routed)           0.300     5.144    and1__6
    SLICE_X0Y22          LUT6 (Prop_lut6_I0_O)        0.124     5.268 r  s_OBUF[13]_inst_i_4/O
                         net (fo=2, routed)           0.623     5.891    n2
    SLICE_X0Y27          LUT6 (Prop_lut6_I4_O)        0.124     6.015 r  s_OBUF[18]_inst_i_5/O
                         net (fo=1, routed)           0.159     6.174    and1__11
    SLICE_X0Y27          LUT6 (Prop_lut6_I0_O)        0.124     6.298 r  s_OBUF[18]_inst_i_4/O
                         net (fo=2, routed)           0.620     6.918    nolabel_line67/n1
    SLICE_X0Y34          LUT6 (Prop_lut6_I4_O)        0.124     7.042 r  s_OBUF[23]_inst_i_5/O
                         net (fo=1, routed)           0.635     7.677    and1__16
    SLICE_X0Y38          LUT6 (Prop_lut6_I0_O)        0.124     7.801 r  s_OBUF[23]_inst_i_4/O
                         net (fo=2, routed)           0.598     8.399    nolabel_line68/n2
    SLICE_X0Y43          LUT6 (Prop_lut6_I4_O)        0.124     8.523 r  s_OBUF[28]_inst_i_5/O
                         net (fo=1, routed)           0.563     9.086    and1__21
    SLICE_X0Y46          LUT6 (Prop_lut6_I0_O)        0.124     9.210 r  s_OBUF[28]_inst_i_4/O
                         net (fo=2, routed)           0.858    10.068    nolabel_line69/n3
    SLICE_X0Y61          LUT6 (Prop_lut6_I4_O)        0.124    10.192 r  s_OBUF[31]_inst_i_4/O
                         net (fo=1, routed)           0.813    11.005    and1__26
    SLICE_X0Y74          LUT6 (Prop_lut6_I0_O)        0.124    11.129 r  s_OBUF[31]_inst_i_3/O
                         net (fo=1, routed)           0.328    11.456    n7
    SLICE_X0Y75          LUT5 (Prop_lut5_I0_O)        0.124    11.580 r  s_OBUF[31]_inst_i_2/O
                         net (fo=1, routed)           0.586    12.166    nolabel_line71/n2
    SLICE_X0Y80          LUT5 (Prop_lut5_I2_O)        0.124    12.290 r  s_OBUF[31]_inst_i_1/O
                         net (fo=1, routed)           3.444    15.734    s_OBUF[31]
    K3                   OBUF (Prop_obuf_I_O)         2.603    18.338 r  s_OBUF[31]_inst/O
                         net (fo=0)                   0.000    18.338    s[31]
    K3                                                                r  s[31] (OUT)
  -------------------------------------------------------------------    -------------------

                         max delay                   20.000    20.000    
                         clock pessimism              0.000    20.000    
                         output delay                -0.000    20.000    
  -------------------------------------------------------------------
                         required time                         20.000    
                         arrival time                         -18.338    
  -------------------------------------------------------------------
                         slack                                  1.662    

Slack (MET) :             1.882ns  (required time - arrival time)
  Source:                 b[0]
                            (input port)
  Destination:            s[26]
  Path Group:             **default**
  Path Type:              Max at Slow Process Corner
  Requirement:            20.000ns  (MaxDelay Path 20.000ns)
  Data Path Delay:        18.118ns  (logic 5.457ns (30.121%)  route 12.661ns (69.879%))
  Logic Levels:           14  (IBUF=1 LUT3=1 LUT5=4 LUT6=7 OBUF=1)
  Output Delay:           0.000ns
  Timing Exception:       MaxDelay Path 20.000ns

    Location             Delay type                Incr(ns)  Path(ns)    Netlist Resource(s)
  -------------------------------------------------------------------    -------------------
    V7                                                0.000     0.000 r  b[0] (IN)
                         net (fo=0)                   0.000     0.000    b[0]
    V7                   IBUF (Prop_ibuf_I_O)         0.928     0.928 r  b_IBUF[0]_inst/O
                         net (fo=4, routed)           2.930     3.858    b_IBUF[0]
    SLICE_X0Y17          LUT6 (Prop_lut6_I1_O)        0.124     3.982 r  s_OBUF[4]_inst_i_2/O
                         net (fo=4, routed)           0.738     4.720    nolabel_line64/n3
    SLICE_X0Y21          LUT6 (Prop_lut6_I4_O)        0.124     4.844 r  s_OBUF[13]_inst_i_5/O
                         net (fo=1, routed)           0.300     5.144    and1__6
    SLICE_X0Y22          LUT6 (Prop_lut6_I0_O)        0.124     5.268 r  s_OBUF[13]_inst_i_4/O
                         net (fo=2, routed)           0.623     5.891    n2
    SLICE_X0Y27          LUT6 (Prop_lut6_I4_O)        0.124     6.015 r  s_OBUF[18]_inst_i_5/O
                         net (fo=1, routed)           0.159     6.174    and1__11
    SLICE_X0Y27          LUT6 (Prop_lut6_I0_O)        0.124     6.298 r  s_OBUF[18]_inst_i_4/O
                         net (fo=2, routed)           0.620     6.918    nolabel_line67/n1
    SLICE_X0Y34          LUT6 (Prop_lut6_I4_O)        0.124     7.042 r  s_OBUF[23]_inst_i_5/O
                         net (fo=1, routed)           0.635     7.677    and1__16
    SLICE_X0Y38          LUT6 (Prop_lut6_I0_O)        0.124     7.801 r  s_OBUF[23]_inst_i_4/O
                         net (fo=2, routed)           0.595     8.396    nolabel_line68/n2
    SLICE_X0Y43          LUT5 (Prop_lut5_I0_O)        0.124     8.520 r  s_OBUF[23]_inst_i_3/O
                         net (fo=1, routed)           0.562     9.081    n5
    SLICE_X0Y46          LUT5 (Prop_lut5_I0_O)        0.124     9.205 r  s_OBUF[23]_inst_i_2/O
                         net (fo=2, routed)           0.586     9.792    nolabel_line69/n2
    SLICE_X0Y48          LUT5 (Prop_lut5_I0_O)        0.150     9.942 r  s_OBUF[25]_inst_i_2/O
                         net (fo=3, routed)           0.972    10.914    n6
    SLICE_X0Y62          LUT5 (Prop_lut5_I0_O)        0.320    11.234 r  s_OBUF[27]_inst_i_2/O
                         net (fo=2, routed)           1.079    12.313    nolabel_line70/n2
    SLICE_X0Y75          LUT3 (Prop_lut3_I0_O)        0.326    12.639 r  s_OBUF[26]_inst_i_1/O
                         net (fo=1, routed)           2.861    15.501    s_OBUF[26]
    B15                  OBUF (Prop_obuf_I_O)         2.618    18.118 r  s_OBUF[26]_inst/O
                         net (fo=0)                   0.000    18.118    s[26]
    B15                                                               r  s[26] (OUT)
  -------------------------------------------------------------------    -------------------

                         max delay                   20.000    20.000    
                         clock pessimism              0.000    20.000    
                         output delay                -0.000    20.000    
  -------------------------------------------------------------------
                         required time                         20.000    
                         arrival time                         -18.118    
  -------------------------------------------------------------------
                         slack                                  1.882    

Slack (MET) :             2.050ns  (required time - arrival time)
  Source:                 b[0]
                            (input port)
  Destination:            s[28]
  Path Group:             **default**
  Path Type:              Max at Slow Process Corner
  Requirement:            20.000ns  (MaxDelay Path 20.000ns)
  Data Path Delay:        17.950ns  (logic 5.012ns (27.920%)  route 12.939ns (72.080%))
  Logic Levels:           14  (IBUF=1 LUT5=3 LUT6=9 OBUF=1)
  Output Delay:           0.000ns
  Timing Exception:       MaxDelay Path 20.000ns

    Location             Delay type                Incr(ns)  Path(ns)    Netlist Resource(s)
  -------------------------------------------------------------------    -------------------
    V7                                                0.000     0.000 r  b[0] (IN)
                         net (fo=0)                   0.000     0.000    b[0]
    V7                   IBUF (Prop_ibuf_I_O)         0.928     0.928 r  b_IBUF[0]_inst/O
                         net (fo=4, routed)           2.930     3.858    b_IBUF[0]
    SLICE_X0Y17          LUT6 (Prop_lut6_I1_O)        0.124     3.982 r  s_OBUF[4]_inst_i_2/O
                         net (fo=4, routed)           0.738     4.720    nolabel_line64/n3
    SLICE_X0Y21          LUT6 (Prop_lut6_I4_O)        0.124     4.844 r  s_OBUF[13]_inst_i_5/O
                         net (fo=1, routed)           0.300     5.144    and1__6
    SLICE_X0Y22          LUT6 (Prop_lut6_I0_O)        0.124     5.268 r  s_OBUF[13]_inst_i_4/O
                         net (fo=2, routed)           0.623     5.891    n2
    SLICE_X0Y27          LUT6 (Prop_lut6_I4_O)        0.124     6.015 r  s_OBUF[18]_inst_i_5/O
                         net (fo=1, routed)           0.159     6.174    and1__11
    SLICE_X0Y27          LUT6 (Prop_lut6_I0_O)        0.124     6.298 r  s_OBUF[18]_inst_i_4/O
                         net (fo=2, routed)           0.620     6.918    nolabel_line67/n1
    SLICE_X0Y34          LUT6 (Prop_lut6_I4_O)        0.124     7.042 r  s_OBUF[23]_inst_i_5/O
                         net (fo=1, routed)           0.635     7.677    and1__16
    SLICE_X0Y38          LUT6 (Prop_lut6_I0_O)        0.124     7.801 r  s_OBUF[23]_inst_i_4/O
                         net (fo=2, routed)           0.598     8.399    nolabel_line68/n2
    SLICE_X0Y43          LUT6 (Prop_lut6_I4_O)        0.124     8.523 r  s_OBUF[28]_inst_i_5/O
                         net (fo=1, routed)           0.563     9.086    and1__21
    SLICE_X0Y46          LUT6 (Prop_lut6_I0_O)        0.124     9.210 r  s_OBUF[28]_inst_i_4/O
                         net (fo=2, routed)           0.855    10.065    nolabel_line69/n3
    SLICE_X0Y61          LUT5 (Prop_lut5_I0_O)        0.124    10.189 r  s_OBUF[28]_inst_i_3/O
                         net (fo=1, routed)           0.807    10.997    nolabel_line70/n1
    SLICE_X0Y74          LUT5 (Prop_lut5_I0_O)        0.124    11.121 r  s_OBUF[28]_inst_i_2/O
                         net (fo=2, routed)           0.448    11.569    nolabel_line70/n3
    SLICE_X0Y75          LUT5 (Prop_lut5_I2_O)        0.124    11.693 r  s_OBUF[28]_inst_i_1/O
                         net (fo=1, routed)           3.661    15.354    s_OBUF[28]
    A15                  OBUF (Prop_obuf_I_O)         2.596    17.950 r  s_OBUF[28]_inst/O
                         net (fo=0)                   0.000    17.950    s[28]
    A15                                                               r  s[28] (OUT)
  -------------------------------------------------------------------    -------------------

                         max delay                   20.000    20.000    
                         clock pessimism              0.000    20.000    
                         output delay                -0.000    20.000    
  -------------------------------------------------------------------
                         required time                         20.000    
                         arrival time                         -17.950    
  -------------------------------------------------------------------
                         slack                                  2.050    

Slack (MET) :             2.228ns  (required time - arrival time)
  Source:                 b[0]
                            (input port)
  Destination:            s[24]
  Path Group:             **default**
  Path Type:              Max at Slow Process Corner
  Requirement:            20.000ns  (MaxDelay Path 20.000ns)
  Data Path Delay:        17.772ns  (logic 5.121ns (28.813%)  route 12.651ns (71.187%))
  Logic Levels:           13  (IBUF=1 LUT3=1 LUT5=3 LUT6=7 OBUF=1)
  Output Delay:           0.000ns
  Timing Exception:       MaxDelay Path 20.000ns

    Location             Delay type                Incr(ns)  Path(ns)    Netlist Resource(s)
  -------------------------------------------------------------------    -------------------
    V7                                                0.000     0.000 r  b[0] (IN)
                         net (fo=0)                   0.000     0.000    b[0]
    V7                   IBUF (Prop_ibuf_I_O)         0.928     0.928 r  b_IBUF[0]_inst/O
                         net (fo=4, routed)           2.930     3.858    b_IBUF[0]
    SLICE_X0Y17          LUT6 (Prop_lut6_I1_O)        0.124     3.982 r  s_OBUF[4]_inst_i_2/O
                         net (fo=4, routed)           0.738     4.720    nolabel_line64/n3
    SLICE_X0Y21          LUT6 (Prop_lut6_I4_O)        0.124     4.844 r  s_OBUF[13]_inst_i_5/O
                         net (fo=1, routed)           0.300     5.144    and1__6
    SLICE_X0Y22          LUT6 (Prop_lut6_I0_O)        0.124     5.268 r  s_OBUF[13]_inst_i_4/O
                         net (fo=2, routed)           0.623     5.891    n2
    SLICE_X0Y27          LUT6 (Prop_lut6_I4_O)        0.124     6.015 r  s_OBUF[18]_inst_i_5/O
                         net (fo=1, routed)           0.159     6.174    and1__11
    SLICE_X0Y27          LUT6 (Prop_lut6_I0_O)        0.124     6.298 r  s_OBUF[18]_inst_i_4/O
                         net (fo=2, routed)           0.620     6.918    nolabel_line67/n1
    SLICE_X0Y34          LUT6 (Prop_lut6_I4_O)        0.124     7.042 r  s_OBUF[23]_inst_i_5/O
                         net (fo=1, routed)           0.635     7.677    and1__16
    SLICE_X0Y38          LUT6 (Prop_lut6_I0_O)        0.124     7.801 r  s_OBUF[23]_inst_i_4/O
                         net (fo=2, routed)           0.595     8.396    nolabel_line68/n2
    SLICE_X0Y43          LUT5 (Prop_lut5_I0_O)        0.124     8.520 r  s_OBUF[23]_inst_i_3/O
                         net (fo=1, routed)           0.562     9.081    n5
    SLICE_X0Y46          LUT5 (Prop_lut5_I0_O)        0.124     9.205 r  s_OBUF[23]_inst_i_2/O
                         net (fo=2, routed)           0.586     9.792    nolabel_line69/n2
    SLICE_X0Y48          LUT5 (Prop_lut5_I0_O)        0.150     9.942 r  s_OBUF[25]_inst_i_2/O
                         net (fo=3, routed)           0.905    10.847    n6
    SLICE_X0Y61          LUT3 (Prop_lut3_I0_O)        0.326    11.173 r  s_OBUF[24]_inst_i_1/O
                         net (fo=1, routed)           3.998    15.171    s_OBUF[24]
    A17                  OBUF (Prop_obuf_I_O)         2.601    17.772 r  s_OBUF[24]_inst/O
                         net (fo=0)                   0.000    17.772    s[24]
    A17                                                               r  s[24] (OUT)
  -------------------------------------------------------------------    -------------------

                         max delay                   20.000    20.000    
                         clock pessimism              0.000    20.000    
                         output delay                -0.000    20.000    
  -------------------------------------------------------------------
                         required time                         20.000    
                         arrival time                         -17.772    
  -------------------------------------------------------------------
                         slack                                  2.228    

Slack (MET) :             2.338ns  (required time - arrival time)
  Source:                 b[0]
                            (input port)
  Destination:            s[22]
  Path Group:             **default**
  Path Type:              Max at Slow Process Corner
  Requirement:            20.000ns  (MaxDelay Path 20.000ns)
  Data Path Delay:        17.662ns  (logic 5.359ns (30.342%)  route 12.303ns (69.658%))
  Logic Levels:           12  (IBUF=1 LUT5=5 LUT6=5 OBUF=1)
  Output Delay:           0.000ns
  Timing Exception:       MaxDelay Path 20.000ns

    Location             Delay type                Incr(ns)  Path(ns)    Netlist Resource(s)
  -------------------------------------------------------------------    -------------------
    V7                                                0.000     0.000 r  b[0] (IN)
                         net (fo=0)                   0.000     0.000    b[0]
    V7                   IBUF (Prop_ibuf_I_O)         0.928     0.928 r  b_IBUF[0]_inst/O
                         net (fo=4, routed)           2.930     3.858    b_IBUF[0]
    SLICE_X0Y17          LUT6 (Prop_lut6_I1_O)        0.124     3.982 r  s_OBUF[4]_inst_i_2/O
                         net (fo=4, routed)           0.738     4.720    nolabel_line64/n3
    SLICE_X0Y21          LUT6 (Prop_lut6_I4_O)        0.124     4.844 r  s_OBUF[13]_inst_i_5/O
                         net (fo=1, routed)           0.300     5.144    and1__6
    SLICE_X0Y22          LUT6 (Prop_lut6_I0_O)        0.124     5.268 r  s_OBUF[13]_inst_i_4/O
                         net (fo=2, routed)           0.623     5.891    n2
    SLICE_X0Y27          LUT6 (Prop_lut6_I4_O)        0.124     6.015 r  s_OBUF[18]_inst_i_5/O
                         net (fo=1, routed)           0.159     6.174    and1__11
    SLICE_X0Y27          LUT6 (Prop_lut6_I0_O)        0.124     6.298 r  s_OBUF[18]_inst_i_4/O
                         net (fo=2, routed)           0.624     6.922    nolabel_line67/n1
    SLICE_X0Y34          LUT5 (Prop_lut5_I0_O)        0.124     7.046 r  s_OBUF[18]_inst_i_3/O
                         net (fo=1, routed)           0.768     7.815    nolabel_line67/n3
    SLICE_X0Y38          LUT5 (Prop_lut5_I0_O)        0.124     7.939 r  s_OBUF[18]_inst_i_2/O
                         net (fo=2, routed)           0.430     8.369    nolabel_line68/n1
    SLICE_X0Y38          LUT5 (Prop_lut5_I0_O)        0.119     8.488 r  s_OBUF[20]_inst_i_2/O
                         net (fo=3, routed)           0.645     9.132    nolabel_line68/n3
    SLICE_X0Y44          LUT5 (Prop_lut5_I0_O)        0.326     9.458 r  s_OBUF[22]_inst_i_2/O
                         net (fo=2, routed)           0.559    10.018    nolabel_line69/n1
    SLICE_X0Y46          LUT5 (Prop_lut5_I2_O)        0.320    10.338 r  s_OBUF[22]_inst_i_1/O
                         net (fo=1, routed)           4.526    14.863    s_OBUF[22]
    B16                  OBUF (Prop_obuf_I_O)         2.798    17.662 r  s_OBUF[22]_inst/O
                         net (fo=0)                   0.000    17.662    s[22]
    B16                                                               r  s[22] (OUT)
  -------------------------------------------------------------------    -------------------

                         max delay                   20.000    20.000    
                         clock pessimism              0.000    20.000    
                         output delay                -0.000    20.000    
  -------------------------------------------------------------------
                         required time                         20.000    
                         arrival time                         -17.662    
  -------------------------------------------------------------------
                         slack                                  2.338    

Slack (MET) :             3.128ns  (required time - arrival time)
  Source:                 b[0]
                            (input port)
  Destination:            s[25]
  Path Group:             **default**
  Path Type:              Max at Slow Process Corner
  Requirement:            20.000ns  (MaxDelay Path 20.000ns)
  Data Path Delay:        16.872ns  (logic 5.124ns (30.373%)  route 11.748ns (69.627%))
  Logic Levels:           13  (IBUF=1 LUT5=4 LUT6=7 OBUF=1)
  Output Delay:           0.000ns
  Timing Exception:       MaxDelay Path 20.000ns

    Location             Delay type                Incr(ns)  Path(ns)    Netlist Resource(s)
  -------------------------------------------------------------------    -------------------
    V7                                                0.000     0.000 r  b[0] (IN)
                         net (fo=0)                   0.000     0.000    b[0]
    V7                   IBUF (Prop_ibuf_I_O)         0.928     0.928 r  b_IBUF[0]_inst/O
                         net (fo=4, routed)           2.930     3.858    b_IBUF[0]
    SLICE_X0Y17          LUT6 (Prop_lut6_I1_O)        0.124     3.982 r  s_OBUF[4]_inst_i_2/O
                         net (fo=4, routed)           0.738     4.720    nolabel_line64/n3
    SLICE_X0Y21          LUT6 (Prop_lut6_I4_O)        0.124     4.844 r  s_OBUF[13]_inst_i_5/O
                         net (fo=1, routed)           0.300     5.144    and1__6
    SLICE_X0Y22          LUT6 (Prop_lut6_I0_O)        0.124     5.268 r  s_OBUF[13]_inst_i_4/O
                         net (fo=2, routed)           0.623     5.891    n2
    SLICE_X0Y27          LUT6 (Prop_lut6_I4_O)        0.124     6.015 r  s_OBUF[18]_inst_i_5/O
                         net (fo=1, routed)           0.159     6.174    and1__11
    SLICE_X0Y27          LUT6 (Prop_lut6_I0_O)        0.124     6.298 r  s_OBUF[18]_inst_i_4/O
                         net (fo=2, routed)           0.620     6.918    nolabel_line67/n1
    SLICE_X0Y34          LUT6 (Prop_lut6_I4_O)        0.124     7.042 r  s_OBUF[23]_inst_i_5/O
                         net (fo=1, routed)           0.635     7.677    and1__16
    SLICE_X0Y38          LUT6 (Prop_lut6_I0_O)        0.124     7.801 r  s_OBUF[23]_inst_i_4/O
                         net (fo=2, routed)           0.595     8.396    nolabel_line68/n2
    SLICE_X0Y43          LUT5 (Prop_lut5_I0_O)        0.124     8.520 r  s_OBUF[23]_inst_i_3/O
                         net (fo=1, routed)           0.562     9.081    n5
    SLICE_X0Y46          LUT5 (Prop_lut5_I0_O)        0.124     9.205 r  s_OBUF[23]_inst_i_2/O
                         net (fo=2, routed)           0.586     9.792    nolabel_line69/n2
    SLICE_X0Y48          LUT5 (Prop_lut5_I0_O)        0.150     9.942 r  s_OBUF[25]_inst_i_2/O
                         net (fo=3, routed)           0.972    10.914    n6
    SLICE_X0Y62          LUT5 (Prop_lut5_I2_O)        0.326    11.240 r  s_OBUF[25]_inst_i_1/O
                         net (fo=1, routed)           3.027    14.267    s_OBUF[25]
    A16                  OBUF (Prop_obuf_I_O)         2.605    16.872 r  s_OBUF[25]_inst/O
                         net (fo=0)                   0.000    16.872    s[25]
    A16                                                               r  s[25] (OUT)
  -------------------------------------------------------------------    -------------------

                         max delay                   20.000    20.000    
                         clock pessimism              0.000    20.000    
                         output delay                -0.000    20.000    
  -------------------------------------------------------------------
                         required time                         20.000    
                         arrival time                         -16.872    
  -------------------------------------------------------------------
                         slack                                  3.128    

Slack (MET) :             3.458ns  (required time - arrival time)
  Source:                 b[0]
                            (input port)
  Destination:            s[21]
  Path Group:             **default**
  Path Type:              Max at Slow Process Corner
  Requirement:            20.000ns  (MaxDelay Path 20.000ns)
  Data Path Delay:        16.542ns  (logic 5.163ns (31.212%)  route 11.379ns (68.788%))
  Logic Levels:           12  (IBUF=1 LUT3=1 LUT5=4 LUT6=5 OBUF=1)
  Output Delay:           0.000ns
  Timing Exception:       MaxDelay Path 20.000ns

    Location             Delay type                Incr(ns)  Path(ns)    Netlist Resource(s)
  -------------------------------------------------------------------    -------------------
    V7                                                0.000     0.000 r  b[0] (IN)
                         net (fo=0)                   0.000     0.000    b[0]
    V7                   IBUF (Prop_ibuf_I_O)         0.928     0.928 r  b_IBUF[0]_inst/O
                         net (fo=4, routed)           2.930     3.858    b_IBUF[0]
    SLICE_X0Y17          LUT6 (Prop_lut6_I1_O)        0.124     3.982 r  s_OBUF[4]_inst_i_2/O
                         net (fo=4, routed)           0.738     4.720    nolabel_line64/n3
    SLICE_X0Y21          LUT6 (Prop_lut6_I4_O)        0.124     4.844 r  s_OBUF[13]_inst_i_5/O
                         net (fo=1, routed)           0.300     5.144    and1__6
    SLICE_X0Y22          LUT6 (Prop_lut6_I0_O)        0.124     5.268 r  s_OBUF[13]_inst_i_4/O
                         net (fo=2, routed)           0.623     5.891    n2
    SLICE_X0Y27          LUT6 (Prop_lut6_I4_O)        0.124     6.015 r  s_OBUF[18]_inst_i_5/O
                         net (fo=1, routed)           0.159     6.174    and1__11
    SLICE_X0Y27          LUT6 (Prop_lut6_I0_O)        0.124     6.298 r  s_OBUF[18]_inst_i_4/O
                         net (fo=2, routed)           0.624     6.922    nolabel_line67/n1
    SLICE_X0Y34          LUT5 (Prop_lut5_I0_O)        0.124     7.046 r  s_OBUF[18]_inst_i_3/O
                         net (fo=1, routed)           0.768     7.815    nolabel_line67/n3
    SLICE_X0Y38          LUT5 (Prop_lut5_I0_O)        0.124     7.939 r  s_OBUF[18]_inst_i_2/O
                         net (fo=2, routed)           0.430     8.369    nolabel_line68/n1
    SLICE_X0Y38          LUT5 (Prop_lut5_I0_O)        0.119     8.488 r  s_OBUF[20]_inst_i_2/O
                         net (fo=3, routed)           0.645     9.132    nolabel_line68/n3
    SLICE_X0Y44          LUT5 (Prop_lut5_I0_O)        0.326     9.458 r  s_OBUF[22]_inst_i_2/O
                         net (fo=2, routed)           0.559    10.018    nolabel_line69/n1
    SLICE_X0Y46          LUT3 (Prop_lut3_I0_O)        0.326    10.344 r  s_OBUF[21]_inst_i_1/O
                         net (fo=1, routed)           3.602    13.946    s_OBUF[21]
    C17                  OBUF (Prop_obuf_I_O)         2.596    16.542 r  s_OBUF[21]_inst/O
                         net (fo=0)                   0.000    16.542    s[21]
    C17                                                               r  s[21] (OUT)
  -------------------------------------------------------------------    -------------------

                         max delay                   20.000    20.000    
                         clock pessimism              0.000    20.000    
                         output delay                -0.000    20.000    
  -------------------------------------------------------------------
                         required time                         20.000    
                         arrival time                         -16.542    
  -------------------------------------------------------------------
                         slack                                  3.458    





