time[ms],#packets last interval,#packets overall,overall avrg. packetsize [byte],overall sum packetsize [byte],overall offer [Mb/s],offer last interval [Mb/s]
0.0,0,0,NaN,0.0,NaN,NaN
500.0,96,96,501.3125,48126.0,0.770016,0.770016
1000.0,99,195,558.6262626262626,103430.0,0.82744,0.8848639999999999
1500.0,97,292,626.9072164948453,164240.0,0.8759466666666668,0.97296
2000.0,113,405,557.2035398230089,227204.0,0.908816,1.007424
2500.0,104,509,606.6057692307693,290291.0,0.9289312,1.009392
3000.0,122,631,628.2950819672132,366943.0,0.9785146666666668,1.226432
3500.0,122,753,600.1229508196722,440158.0,1.0060754285714286,1.17144
4000.0,89,842,621.7191011235955,495491.0,0.990982,0.885328
4500.0,106,948,630.0,562271.0,0.9995928888888889,1.06848
