time[ms],#packets last interval,#packets overall,overall avrg. packetsize [byte],overall sum packetsize [byte],overall thrp [Mb/s],tpht last interval [Mb/s]
0.0,0,0,NaN,0.0,NaN,NaN
500.0,18,18,594.9444444444445,10709.0,0.171344,0.171344
1000.0,9,27,673.5555555555555,16771.0,0.134168,0.096992
1500.0,16,43,603.5,26427.0,0.140944,0.154496
2000.0,7,50,609.4285714285714,30693.0,0.122772,0.068256
2500.0,5,55,871.2,35049.0,0.1121568,0.069696
3000.0,0,55,NaN,35049.0,0.093464,NaN
3500.0,0,55,NaN,35049.0,0.080112,NaN
4000.0,15,70,618.6,44328.0,0.088656,0.148464
4500.0,5,75,611.8,47387.0,0.08424355555555556,0.048944
