time[ms],#packets last interval,#packets overall,overall avrg. packetsize [byte],overall sum packetsize [byte],overall thrp [Mb/s],tpht last interval [Mb/s]
0.0,0,0,NaN,0.0,NaN,NaN
500.0,5,5,601.8,3009.0,0.048144,0.048144
1000.0,6,11,586.1666666666666,6526.0,0.052208,0.056272
1500.0,11,22,646.2727272727273,13635.0,0.07272,0.113744
2000.0,7,29,657.1428571428571,18235.0,0.07294,0.0736
2500.0,16,45,725.4375,29842.0,0.0954944,0.185712
3000.0,4,49,435.25,31583.0,0.08422133333333333,0.027856
3500.0,6,55,831.1666666666666,36570.0,0.08358857142857141,0.079792
4000.0,0,55,NaN,36570.0,0.07314,NaN
4500.0,0,55,NaN,36570.0,0.06501333333333334,NaN
