\BOOKMARK [1][-]{section.1}{Konzepte}{}% 1
\BOOKMARK [1][-]{section.2}{Diskrete Verteilungen}{}% 2
\BOOKMARK [1][-]{section.3}{Zufallsvariablen}{}% 3
\BOOKMARK [1][-]{section.4}{Sch\344tzer}{}% 4
\BOOKMARK [1][-]{section.5}{Statistik}{}% 5
